<?xml version="1.0" standalone="no"?>
<!DOCTYPE svg PUBLIC "-//W3C//DTD SVG 1.1//EN" "http://www.w3.org/Graphics/SVG/1.1/DTD/svg11.dtd" >
<svg>
<metadata>
Created by FontForge 20090622 at Tue Sep 20 02:42:01 2016
 By deploy user
Copyright (c) 1989 Adobe Systems Incorporated.  All Rights Reserved.Avenir is a registered trademark of Linotype AG and/or its subsidiaries.
</metadata>
<defs>
<font id="AvenirLT-Medium" horiz-adv-x="556" >
  <font-face 
    font-family="Avenir LT 65 Medium"
    font-weight="400"
    font-stretch="normal"
    units-per-em="1000"
    panose-1="2 0 6 3 2 0 0 2 0 3"
    ascent="800"
    descent="-200"
    x-height="474"
    cap-height="708"
    bbox="-166 -282 1036 924"
    underline-thickness="50"
    underline-position="-75"
    unicode-range="U+0020-U+FB02"
  />
<missing-glyph horiz-adv-x="278" 
 />
    <glyph glyph-name=".notdef" horiz-adv-x="278" 
 />
    <glyph glyph-name="space" unicode=" " horiz-adv-x="278" 
 />
    <glyph glyph-name="space" unicode="&#xa0;" horiz-adv-x="278" 
 />
    <glyph glyph-name="exclam" unicode="!" horiz-adv-x="278" 
d="M73 60q0 27 19.5 46.5t46.5 19.5t46.5 -19.5t19.5 -46.5t-19.5 -46.5t-46.5 -19.5t-46.5 19.5t-19.5 46.5zM185 204h-96v504h96v-504z" />
    <glyph glyph-name="quotedbl" unicode="&#x22;" horiz-adv-x="519" 
d="M295 708h78v-246h-78v246zM146 708h78v-246h-78v246z" />
    <glyph glyph-name="numbersign" unicode="#" 
d="M230 426l-20 -144h116l20 144h-116zM120 204h-95v78h106l20 144h-95v78h106l28 204h79l-28 -204h116l28 204h79l-28 -204h95v-78h-106l-20 -144h95v-78h-106l-28 -204h-79l28 204h-116l-28 -204h-79z" />
    <glyph glyph-name="dollar" unicode="$" 
d="M300 72q25 3 46.5 12t38 24t26 35.5t9.5 46.5t-10.5 44.5t-27 31.5t-38.5 22t-44 16v-232zM246 636q-48 -8 -78 -36.5t-30 -76.5q0 -24 9 -41.5t24 -30.5t34.5 -22t40.5 -15v222zM300 720q55 0 107.5 -18.5t90.5 -58.5l-72 -70q-23 29 -55.5 45.5t-70.5 17.5v-236l-2 -1
q43 -12 82.5 -26.5t69.5 -37t48 -56.5t18 -85q0 -46 -17.5 -83t-47 -63.5t-69 -41.5t-82.5 -18v-72h-54v72q-66 0 -122.5 21.5t-97.5 74.5l77 69q23 -38 62 -58.5t81 -22.5v246q-41 10 -77.5 25.5t-65 39.5t-45 58t-16.5 82q0 43 17 77.5t45 60t65 41t77 18.5v72h54v-72z
" />
    <glyph glyph-name="percent" unicode="%" horiz-adv-x="852" 
d="M539 159q0 -42 28.5 -70.5t70.5 -28.5t70.5 28.5t28.5 70.5t-28.5 70.5t-70.5 28.5t-70.5 -28.5t-28.5 -70.5zM461 159q0 37 14 69t38 56t56 38t69 14t69 -14t56 -38t38 -56t14 -69t-14 -69t-38 -56t-56 -38t-69 -14t-69 14t-56 38t-38 56t-14 69zM115 549
q0 -42 28.5 -70.5t70.5 -28.5t70.5 28.5t28.5 70.5t-28.5 70.5t-70.5 28.5t-70.5 -28.5t-28.5 -70.5zM37 549q0 37 14 69t38 56t56 38t69 14t69 -14t56 -38t38 -56t14 -69t-14 -69t-38 -56t-56 -38t-69 -14t-69 14t-56 38t-38 56t-14 69zM235 -31l-60 31l445 740l60 -31z
" />
    <glyph glyph-name="ampersand" unicode="&#x26;" horiz-adv-x="722" 
d="M268 334q-21 -12 -42.5 -26t-38.5 -31t-27.5 -38.5t-10.5 -48.5q0 -26 11 -48.5t30 -39.5t42.5 -26.5t49.5 -9.5t48.5 8t42 20.5t36 28.5t30.5 33zM401 560q0 35 -24 55.5t-62 20.5t-66 -21.5t-28 -61.5q0 -18 6.5 -34t17 -31t22.5 -28l24 -25q18 10 37.5 22t35.5 27
t26.5 33.5t10.5 42.5zM712 0h-129l-87 94q-45 -54 -95.5 -83t-121.5 -29q-60 0 -104 17.5t-72.5 46.5t-42 65.5t-13.5 75.5q0 37 13 67.5t35 55.5t51.5 45t61.5 35q-34 36 -58.5 74t-24.5 90q0 40 15.5 71t41.5 52t60 32t72 11q37 0 70.5 -10t58.5 -30t39.5 -50t14.5 -70
q0 -33 -13 -60.5t-34 -50t-47 -40t-53 -31.5l140 -146l89 145h109l-137 -212z" />
    <glyph glyph-name="quotesingle" unicode="'" horiz-adv-x="278" 
d="M178 462h-78v246h78v-246z" />
    <glyph glyph-name="parenleft" unicode="(" horiz-adv-x="278" 
d="M254 694q-32 -51 -56 -98t-40 -95.5t-24 -100.5t-8 -112q0 -110 32 -213t96 -191l-60 -40q-69 94 -107.5 207t-38.5 237q0 115 37 230t109 214z" />
    <glyph glyph-name="parenright" unicode=")" horiz-adv-x="278" 
d="M24 -118q32 51 56 98t40 95.5t24 100.5t8 112q0 110 -32 213t-96 191l60 40q69 -94 107.5 -207t38.5 -237q0 -115 -37 -230t-109 -214z" />
    <glyph glyph-name="asterisk" unicode="*" horiz-adv-x="464" 
d="M269 561l139 47l21 -67l-139 -45l88 -119l-55 -41l-91 122l-89 -120l-55 41l89 117l-142 48l21 65l141 -48v147h72v-147z" />
    <glyph glyph-name="plus" unicode="+" horiz-adv-x="666" 
d="M66 342h228v228h78v-228h228v-78h-228v-228h-78v228h-228v78z" />
    <glyph glyph-name="comma" unicode="," horiz-adv-x="278" 
d="M130 -132h-82l69 246h97z" />
    <glyph glyph-name="hyphen" unicode="-" horiz-adv-x="316" 
d="M281 200h-246v84h246v-84z" />
    <glyph glyph-name="hyphen" unicode="&#xad;" horiz-adv-x="316" 
d="M281 200h-246v84h246v-84z" />
    <glyph glyph-name="period" unicode="." horiz-adv-x="278" 
d="M139 -6q-27 0 -46.5 19.5t-19.5 46.5t19.5 46.5t46.5 19.5t46.5 -19.5t19.5 -46.5t-19.5 -46.5t-46.5 -19.5z" />
    <glyph glyph-name="slash" unicode="/" horiz-adv-x="389" 
d="M70 -44l-70 26l320 770l69 -26z" />
    <glyph glyph-name="zero" unicode="0" 
d="M130 354q0 -35 4.5 -83t19.5 -92.5t44.5 -75.5t79.5 -31t79.5 31t44.5 75.5t19.5 92.5t4.5 83q0 24 -1.5 54.5t-7 62t-15.5 61t-26.5 53t-40.5 37.5t-57 14t-57 -14t-40.5 -37.5t-26.5 -53t-15.5 -61t-7 -62t-1.5 -54.5zM34 354q0 39 4 81t14.5 82.5t28 77.5t45 64.5
t65 44t87.5 16.5t87.5 -16.5t65 -44t45 -64.5t28 -77.5t14.5 -82.5t4 -81q0 -56 -10 -120t-37 -119t-74.5 -91t-122.5 -36t-122.5 36t-74.5 91t-37 119t-10 120z" />
    <glyph glyph-name="one" unicode="1" 
d="M270 598l-130 -120l-56 67l197 163h85v-708h-96v598z" />
    <glyph glyph-name="two" unicode="2" 
d="M46 102l284 282q15 14 29 30.5t25 34.5t17.5 38t6.5 42q0 26 -9.5 47t-26 35.5t-39 22.5t-47.5 8q-52 0 -86 -29t-43 -80l-104 9q7 47 27.5 81.5t51 57.5t70 34t85.5 11t86.5 -12.5t71 -37t48 -61t17.5 -85.5q0 -35 -10.5 -65.5t-27.5 -57.5t-39 -51t-46 -47l-233 -225
h356v-84h-464v102z" />
    <glyph glyph-name="three" unicode="3" 
d="M147 173q17 -51 45.5 -76t84.5 -25q28 0 52.5 9.5t43.5 26t30 40t11 52.5q0 44 -18.5 70.5t-47.5 40t-64 17.5t-69 4v84q55 0 90 7.5t55 21.5t28 35t8 47q0 57 -34 86t-85 29q-39 0 -70.5 -22.5t-47.5 -59.5l-98 33q28 68 85.5 100.5t128.5 32.5q43 0 82.5 -11.5
t69.5 -35.5t47.5 -60.5t17.5 -85.5q0 -56 -33.5 -100t-87.5 -60v-2q33 -6 59 -22t44 -40t27 -53.5t9 -62.5q0 -51 -19.5 -89.5t-52 -64t-75 -38.5t-89.5 -13q-81 0 -142.5 37t-85.5 117z" />
    <glyph glyph-name="four" unicode="4" 
d="M336 594h-2l-216 -354h218v354zM336 156h-302v98l282 454h116v-468h100v-84h-100v-156h-96v156z" />
    <glyph glyph-name="five" unicode="5" 
d="M471 618h-287l-3 -177q7 3 20 6t26.5 5t26.5 3t22 1q50 0 90.5 -17t69.5 -48t44.5 -74t15.5 -95q0 -53 -19.5 -96t-53.5 -74t-79 -47.5t-97 -16.5q-72 0 -130 37t-83 106l97 33q19 -49 51 -70.5t80 -21.5q28 0 53.5 10t44 28.5t29.5 45.5t11 61q0 78 -47.5 116.5
t-123.5 38.5q-27 0 -68.5 -9.5t-77.5 -27.5l8 373h380v-90z" />
    <glyph glyph-name="six" unicode="6" 
d="M131 219q0 -32 10.5 -59t30 -46.5t46.5 -30.5t60 -11t60 11t46.5 30.5t30 46.5t10.5 59t-10.5 59t-30 46.5t-46.5 30.5t-60 11t-60 -11t-46.5 -30.5t-30 -46.5t-10.5 -59zM220 434h4q33 16 78 16q38 0 77 -13t70.5 -40.5t51.5 -70t20 -100.5q0 -59 -19.5 -103.5
t-52.5 -74.5t-77 -45t-94 -15t-94 16t-77 46t-52.5 72t-19.5 94q0 33 5 60t14.5 51.5t22.5 48t29 49.5l179 283h113z" />
    <glyph glyph-name="seven" unicode="7" 
d="M384 624h-342v84h445v-82l-282 -626h-108z" />
    <glyph glyph-name="eight" unicode="8" 
d="M278 72q60 0 97.5 36.5t37.5 94.5q0 32 -10.5 56.5t-29 41t-43 25t-52.5 8.5q-59 -1 -97 -37.5t-38 -93.5q0 -31 11 -55.5t29.5 -41t43 -25.5t51.5 -9zM167 530q0 -21 7.5 -41t21.5 -35.5t34.5 -25.5t47.5 -10q28 0 48.5 9.5t34.5 25t21 35.5t7 42q0 49 -30.5 80.5
t-80.5 31.5q-46 0 -78.5 -31t-32.5 -81zM278 -12q-48 0 -90.5 14.5t-73.5 42.5t-49 68t-18 90q0 33 10.5 61t28.5 50.5t42.5 38t53.5 23.5v3q-20 5 -40 18t-35.5 33t-25.5 48.5t-10 65.5q0 40 16.5 72.5t45 55.5t66 35.5t79.5 12.5t79.5 -12.5t66 -35.5t45 -55.5t16.5 -72.5
q0 -37 -10 -65.5t-25.5 -48.5t-35.5 -33t-40 -18v-3q29 -8 53.5 -23.5t42.5 -38t28.5 -50.5t10.5 -61q0 -50 -18 -90t-49 -68t-73.5 -42.5t-90.5 -14.5z" />
    <glyph glyph-name="nine" unicode="9" 
d="M425 489q0 32 -10.5 59t-30 46.5t-46.5 30.5t-60 11t-60 -11t-46.5 -30.5t-30 -46.5t-10.5 -59t10.5 -59t30 -46.5t46.5 -30.5t60 -11t60 11t46.5 30.5t30 46.5t10.5 59zM336 274h-4q-33 -16 -78 -16q-38 0 -77 13t-70.5 40.5t-51.5 70t-20 100.5t19.5 102.5t52.5 74.5
t77 45.5t94 15.5t94 -16t77 -46t52.5 -72t19.5 -94q0 -33 -5 -60t-14.5 -51.5t-22.5 -48.5t-29 -49l-179 -283h-113z" />
    <glyph glyph-name="colon" unicode=":" horiz-adv-x="278" 
d="M73 60q0 27 19.5 46.5t46.5 19.5t46.5 -19.5t19.5 -46.5t-19.5 -46.5t-46.5 -19.5t-46.5 19.5t-19.5 46.5zM139 348q-27 0 -46.5 19.5t-19.5 46.5t19.5 46.5t46.5 19.5t46.5 -19.5t19.5 -46.5t-19.5 -46.5t-46.5 -19.5z" />
    <glyph glyph-name="semicolon" unicode=";" horiz-adv-x="278" 
d="M73 413q0 27 19.5 46.5t46.5 19.5t46.5 -19.5t19.5 -46.5t-19.5 -46.5t-46.5 -19.5t-46.5 19.5t-19.5 46.5zM130 -132h-82l69 246h97z" />
    <glyph glyph-name="semicolon" unicode="&#x37e;" horiz-adv-x="278" 
d="M73 413q0 27 19.5 46.5t46.5 19.5t46.5 -19.5t19.5 -46.5t-19.5 -46.5t-46.5 -19.5t-46.5 19.5t-19.5 46.5zM130 -132h-82l69 246h97z" />
    <glyph glyph-name="less" unicode="&#x3c;" horiz-adv-x="666" 
d="M600 43l-534 219v82l534 220v-79l-452 -182l452 -182v-78z" />
    <glyph glyph-name="equal" unicode="=" horiz-adv-x="666" 
d="M600 263v-78h-534v78h534zM600 420v-78h-534v78h534z" />
    <glyph glyph-name="greater" unicode="&#x3e;" horiz-adv-x="666" 
d="M66 563l534 -219v-82l-534 -220v79l452 182l-452 182v78z" />
    <glyph glyph-name="question" unicode="?" horiz-adv-x="500" 
d="M191 60q0 27 19.5 46.5t46.5 19.5t46.5 -19.5t19.5 -46.5t-19.5 -46.5t-46.5 -19.5t-46.5 19.5t-19.5 46.5zM210 198v61q0 27 4 45t12 32.5t21.5 28l33.5 32.5l32 30.5t29 32t21.5 35t8.5 41.5t-8.5 42.5t-22.5 33.5t-33.5 22t-41.5 8q-49 0 -79.5 -31t-36.5 -81l-102 10
q13 87 72.5 136.5t147.5 49.5q42 0 78.5 -12.5t63.5 -36t42.5 -58t15.5 -78.5q0 -38 -11 -66.5t-31 -53.5l-60 -62l-10 -9q-16 -15 -25.5 -25.5t-15 -22t-7.5 -25.5t-2 -35v-44h-96z" />
    <glyph glyph-name="at" unicode="@" horiz-adv-x="800" 
d="M531 267q-5 -17 -5 -25q0 -24 29 -24q21 0 43 15.5t39.5 42.5t29 62.5t11.5 75.5q0 59 -21 104.5t-57 77t-83.5 48t-100.5 16.5q-64 0 -118 -24t-93 -65.5t-61 -97.5t-22 -121q0 -66 23 -122t63.5 -96.5t95 -63t117.5 -22.5q72 0 134.5 26t98.5 75h79q-21 -38 -54.5 -69
t-75.5 -52.5t-89 -33.5t-95 -12q-79 0 -147.5 29t-119 79.5t-79.5 119t-29 146.5q0 77 29.5 144.5t80 117.5t118 79t143.5 29q70 0 132 -23t108.5 -63.5t73.5 -96t27 -121.5q0 -64 -23.5 -116t-59 -89t-76.5 -57t-76 -20q-26 0 -44 16.5t-19 47.5h-4q-23 -24 -55 -44
t-69 -20q-32 0 -57.5 12.5t-43 33.5t-27 49.5t-9.5 61.5q0 49 16 97t45 85.5t70.5 60.5t92.5 23q35 0 64 -17.5t43 -58.5h2l16 57h73zM422 485q-35 0 -62 -15.5t-45.5 -42t-28 -60t-9.5 -69.5q0 -37 16.5 -58.5t54.5 -21.5q30 0 55.5 17.5t43.5 43.5t28 57.5t10 60.5
q0 35 -15.5 61.5t-47.5 26.5z" />
    <glyph glyph-name="B" unicode="B" horiz-adv-x="630" 
d="M187 84h141q22 0 48.5 4.5t49.5 18t39 36.5t16 61q0 63 -41 94.5t-111 31.5h-142v-246zM187 414h131q27 0 51 5.5t42 18.5t28.5 33t10.5 49q0 42 -27 73t-85 31h-151v-210zM91 708h246q46 0 85.5 -11t68 -32.5t45 -55t16.5 -78.5q0 -61 -34 -99.5t-88 -56.5v-2
q32 -2 60 -16.5t48.5 -38t32.5 -54.5t12 -67q0 -48 -19.5 -84.5t-53.5 -61.5t-79 -38t-97 -13h-243v708z" />
    <glyph glyph-name="C" unicode="C" horiz-adv-x="704" 
d="M584 555q-30 39 -76 60t-95 21q-60 0 -108.5 -22.5t-83 -61.5t-53.5 -91.5t-19 -112.5q0 -56 18 -106t52 -88t83 -60t111 -22q61 0 107 25t78 70l81 -61q-8 -11 -28 -31.5t-53 -41t-79.5 -36t-107.5 -15.5q-84 0 -151.5 32t-115 84t-72.5 117.5t-25 132.5q0 82 27 151.5
t75.5 120t116.5 78.5t150 28q70 0 137.5 -27t110.5 -83z" />
    <glyph glyph-name="D" unicode="D" horiz-adv-x="741" 
d="M171 90h121q61 0 115.5 16.5t95.5 49.5t65 82.5t24 115.5q0 34 -11 79.5t-41.5 86.5t-84.5 69.5t-140 28.5h-144v-528zM75 708h247q75 0 131.5 -17t98 -45.5t69 -65.5t43.5 -76t23 -78t7 -72q0 -68 -25 -131.5t-74 -113t-121.5 -79.5t-167.5 -30h-231v708z" />
    <glyph glyph-name="E" unicode="E" horiz-adv-x="611" 
d="M91 708h457v-90h-361v-211h336v-90h-336v-227h379v-90h-475v708z" />
    <glyph glyph-name="F" unicode="F" horiz-adv-x="574" 
d="M91 708h445v-90h-349v-222h325v-90h-325v-306h-96v708z" />
    <glyph glyph-name="G" unicode="G" horiz-adv-x="778" 
d="M694 396v-349q-26 -16 -59 -28t-68.5 -20.5t-72 -12.5t-68.5 -4q-90 0 -160.5 30t-119 81t-74 118.5t-25.5 142.5q0 79 27.5 147t76 118t116.5 78.5t149 28.5q98 0 160 -24.5t104 -67.5l-68 -73q-44 42 -93 58.5t-103 16.5q-61 0 -110 -22.5t-84 -60.5t-54 -89.5
t-19 -109.5q0 -60 21 -111.5t58 -89.5t87 -59.5t109 -21.5q51 0 96.5 9.5t77.5 27.5v197h-157v90h253z" />
    <glyph glyph-name="H" unicode="H" horiz-adv-x="741" 
d="M91 708h96v-294h367v294h96v-708h-96v324h-367v-324h-96v708z" />
    <glyph glyph-name="I" unicode="I" horiz-adv-x="278" 
d="M91 708h96v-708h-96v708z" />
    <glyph glyph-name="J" unicode="J" horiz-adv-x="482" 
d="M312 708h96v-506q0 -67 -21 -109.5t-52.5 -67t-67.5 -34t-66 -9.5q-75 0 -126.5 38.5t-65.5 116.5l94 21q8 -40 33 -63t65 -23q36 0 57.5 14t33.5 36.5t16 51.5t4 59v475z" />
    <glyph glyph-name="K" unicode="K" horiz-adv-x="648" 
d="M91 708h96v-306h8l313 306h134l-342 -327l365 -381h-140l-330 354h-8v-354h-96v708z" />
    <glyph glyph-name="L" unicode="L" horiz-adv-x="519" 
d="M91 708h96v-618h325v-90h-421v708z" />
    <glyph glyph-name="M" unicode="M" horiz-adv-x="906" 
d="M84 708h143l225 -536h4l223 536h143v-708h-96v582h-2l-239 -582h-64l-239 582h-2v-582h-96v708z" />
    <glyph glyph-name="N" unicode="N" horiz-adv-x="796" 
d="M91 708h126l390 -582h2v582h96v-708h-122l-394 582h-2v-582h-96v708z" />
    <glyph glyph-name="O" unicode="O" horiz-adv-x="832" 
d="M416 72q61 0 110 22.5t84 60.5t54 89.5t19 109.5t-19 109.5t-54 89.5t-84 60.5t-110 22.5t-110 -22.5t-84 -60.5t-54 -89.5t-19 -109.5t19 -109.5t54 -89.5t84 -60.5t110 -22.5zM416 -18q-81 0 -149 28.5t-116.5 78.5t-76 118t-27.5 147t27.5 147t76 118t116.5 78.5
t149 28.5t149 -28.5t116.5 -78.5t76 -118t27.5 -147t-27.5 -147t-76 -118t-116.5 -78.5t-149 -28.5z" />
    <glyph glyph-name="P" unicode="P" horiz-adv-x="593" 
d="M187 396h126q28 0 55.5 4.5t49 16.5t34.5 34.5t13 58.5t-13 58.5t-34.5 34.5t-49 16.5t-55.5 4.5h-126v-228zM91 708h249q68 0 112 -18.5t69.5 -47t35.5 -64t10 -68.5t-10 -68.5t-35.5 -64t-69.5 -47t-112 -18.5h-153v-312h-96v708z" />
    <glyph glyph-name="Q" unicode="Q" horiz-adv-x="832" 
d="M410 90q58 0 106.5 21.5t83 59t53.5 88.5t19 109q0 56 -19.5 105t-54.5 85t-83 57t-105 21q-56 0 -103.5 -21t-82.5 -57t-55 -84.5t-20 -103.5q0 -58 19 -109t53.5 -89t82.5 -60t106 -22zM822 0h-408q-75 0 -142 27t-117 75t-79 114.5t-29 145.5q0 78 28 144.5
t77.5 115.5t116 76.5t144.5 27.5q75 0 140.5 -27t114.5 -74.5t77.5 -112t28.5 -140.5q0 -45 -10.5 -88.5t-31 -81.5t-51 -68t-69.5 -48v-2h210v-84z" />
    <glyph glyph-name="R" unicode="R" horiz-adv-x="611" 
d="M187 396h126q28 0 55.5 4.5t49 16.5t34.5 34.5t13 58.5t-13 58.5t-34.5 34.5t-49 16.5t-55.5 4.5h-126v-228zM91 708h249q68 0 112 -18.5t69.5 -47t35.5 -64t10 -68.5q0 -34 -12 -65.5t-34.5 -57t-55 -43t-72.5 -21.5l201 -323h-120l-180 312h-107v-312h-96v708z" />
    <glyph glyph-name="S" unicode="S" 
d="M112 148q26 -39 66.5 -57.5t83.5 -18.5q24 0 49 7.5t45.5 22.5t33.5 37t13 51q0 41 -26 62.5t-64.5 36t-84 28t-84 37.5t-64.5 64.5t-26 109.5q0 31 13.5 66t42.5 64t74.5 48.5t109.5 19.5q58 0 111 -16t93 -65l-78 -71q-18 28 -51 45t-75 17q-40 0 -66.5 -10.5
t-42.5 -27t-22.5 -35.5t-6.5 -35q0 -45 26 -69t64.5 -39t84 -27t84 -33.5t64.5 -58t26 -100.5q0 -51 -19.5 -92t-52.5 -69t-78 -43t-96 -15q-68 0 -129 24t-97 74z" />
    <glyph glyph-name="T" unicode="T" horiz-adv-x="574" 
d="M239 618h-228v90h552v-90h-228v-618h-96v618z" />
    <glyph glyph-name="U" unicode="U" horiz-adv-x="704" 
d="M174 708v-434q0 -33 9 -68.5t30 -65.5t55 -49t84 -19t84 19t55 49t30 65.5t9 68.5v434h96v-449q0 -62 -21 -112.5t-58 -87.5t-87 -57t-108 -20t-108 20t-87 57t-58 87.5t-21 112.5v449h96z" />
    <glyph glyph-name="V" unicode="V" horiz-adv-x="630" 
d="M-6 708h111l208 -576h2l216 576h105l-279 -708h-90z" />
    <glyph glyph-name="W" unicode="W" horiz-adv-x="962" 
d="M1 708h100l156 -566h2l167 566h110l167 -566h2l156 566h100l-206 -708h-101l-172 578h-2l-171 -578h-101z" />
    <glyph glyph-name="X" unicode="X" horiz-adv-x="648" 
d="M255 372l-238 336h123l184 -272l182 272h120l-236 -335l260 -373h-126l-203 307l-204 -307h-119z" />
    <glyph glyph-name="Y" unicode="Y" horiz-adv-x="612" 
d="M258 302l-268 406h123l193 -311l199 311h117l-268 -406v-302h-96v302z" />
    <glyph glyph-name="Z" unicode="Z" horiz-adv-x="593" 
d="M32 90l403 528h-391v90h511v-90l-401 -528h407v-90h-529v90z" />
    <glyph glyph-name="bracketleft" unicode="[" horiz-adv-x="278" 
d="M72 732h174v-66h-90v-756h90v-66h-174v888z" />
    <glyph glyph-name="backslash" unicode="\" horiz-adv-x="389" 
d="M0 726l69 26l320 -770l-70 -26z" />
    <glyph glyph-name="bracketright" unicode="]" horiz-adv-x="278" 
d="M32 -90h90v756h-90v66h174v-888h-174v66z" />
    <glyph glyph-name="asciicircum" unicode="^" horiz-adv-x="666" 
d="M293 708h80l213 -432h-83l-170 353l-170 -353h-83z" />
    <glyph glyph-name="underscore" unicode="_" horiz-adv-x="500" 
d="M0 -75h500v-50h-500v50z" />
    <glyph glyph-name="grave" unicode="`" horiz-adv-x="240" 
d="M186 564h-83l-149 144h128z" />
    <glyph glyph-name="a" unicode="a" horiz-adv-x="519" 
d="M324 228q-32 0 -65.5 -3.5t-61 -13.5t-45 -28t-17.5 -46q0 -41 27.5 -59t74.5 -18q37 0 63 12.5t42 32.5t23 44.5t7 48.5v30h-48zM70 416q38 35 88 52.5t100 17.5q52 0 89.5 -13t61.5 -35t35.5 -50.5t11.5 -59.5v-242q0 -25 1 -46t3 -40h-80q-3 36 -3 72h-2
q-30 -46 -71 -65t-95 -19q-33 0 -63 9t-52.5 27t-35.5 44.5t-13 61.5q0 46 20.5 77t56 50.5t83 28t101.5 8.5h66v20q0 18 -7 36t-21 32.5t-35 23t-50 8.5q-26 0 -45.5 -5t-35.5 -12.5t-29 -17.5l-25 -19z" />
    <glyph glyph-name="b" unicode="b" horiz-adv-x="611" 
d="M314 72q36 0 65 12.5t49 34t31 52t11 66.5t-11 66.5t-31 52t-49 34t-65 12.5t-65 -12.5t-49 -34t-31 -52t-11 -66.5t11 -66.5t31 -52t49 -34t65 -12.5zM68 756h90v-350h2q24 37 69 58.5t96 21.5q55 0 99.5 -19t76 -52.5t48.5 -79t17 -98.5t-17 -98t-48.5 -79t-76 -53
t-99.5 -19q-48 0 -93.5 21t-71.5 59h-2v-68h-90v756z" />
    <glyph glyph-name="c" unicode="c" horiz-adv-x="482" 
d="M407 348q-25 26 -52.5 39.5t-65.5 13.5q-37 0 -64.5 -13.5t-46 -37t-28 -54t-9.5 -63.5t11 -62.5t31 -51.5t48 -34.5t63 -12.5q38 0 65 13.5t50 39.5l64 -64q-35 -39 -81.5 -56t-98.5 -17q-55 0 -100.5 18t-78.5 50.5t-51 78t-18 100.5t18 101t50.5 79t78 51.5
t101.5 18.5q52 0 99.5 -18.5t82.5 -56.5z" />
    <glyph glyph-name="d" unicode="d" horiz-adv-x="611" 
d="M297 72q36 0 65 12.5t49 34t31 52t11 66.5t-11 66.5t-31 52t-49 34t-65 12.5t-65 -12.5t-49 -34t-31 -52t-11 -66.5t11 -66.5t31 -52t49 -34t65 -12.5zM543 0h-90v68h-2q-26 -38 -71.5 -59t-93.5 -21q-55 0 -99.5 19t-76 53t-48.5 79t-17 98t17 98.5t48.5 79t76 52.5
t99.5 19q51 0 96 -21.5t69 -58.5h2v350h90v-756z" />
    <glyph glyph-name="e" unicode="e" 
d="M420 276q-1 30 -9.5 55t-25.5 43.5t-42.5 29t-59.5 10.5q-33 0 -60.5 -12.5t-46.5 -32.5t-29.5 -44.5t-10.5 -48.5h284zM136 204q0 -31 13.5 -56.5t35.5 -43.5t51 -28t60 -10q42 0 73 19.5t57 51.5l68 -52q-75 -97 -210 -97q-56 0 -101.5 19t-77 52.5t-48.5 79t-17 98.5
t18.5 98.5t51 79t77.5 52.5t98 19q63 0 106.5 -22t71.5 -57.5t40.5 -80t12.5 -90.5v-32h-380z" />
    <glyph glyph-name="f" unicode="f" horiz-adv-x="333" 
d="M103 396h-102v78h102v106q0 95 36.5 141.5t125.5 46.5q15 0 31.5 -1t35.5 -6l-10 -80q-13 5 -25 7t-26 2q-25 0 -40 -7.5t-23.5 -21.5t-11 -33.5t-2.5 -44.5v-109h107v-78h-108v-396h-90v396z" />
    <glyph glyph-name="g" unicode="g" horiz-adv-x="611" 
d="M297 402q-36 0 -65 -12.5t-49 -34t-31 -52t-11 -66.5q0 -72 42 -115.5t114 -43.5t114 43.5t42 115.5q0 36 -11 66.5t-31 52t-49 34t-65 12.5zM543 4q0 -54 -18.5 -98.5t-52.5 -77t-82 -50.5t-106 -18q-68 0 -124.5 19t-107.5 66l61 76q35 -38 76 -57.5t93 -19.5
q50 0 83 14.5t52.5 37.5t27.5 52.5t8 59.5v70h-3q-26 -43 -70.5 -63.5t-93.5 -20.5q-52 0 -96.5 18.5t-76.5 51t-50 77t-18 96.5t17 97.5t48.5 79.5t76 53t99.5 19q48 0 93.5 -21t71.5 -59h2v68h90v-470z" />
    <glyph glyph-name="h" unicode="h" 
d="M68 756h90v-355h2q17 38 59 61.5t97 23.5q34 0 65.5 -10.5t55 -32.5t37.5 -56.5t14 -81.5v-305h-90v280q0 33 -9 56.5t-24 38t-34.5 21t-40.5 6.5q-28 0 -52 -9t-42 -28.5t-28 -49.5t-10 -71v-244h-90v756z" />
    <glyph glyph-name="i" unicode="i" horiz-adv-x="240" 
d="M54 644q0 27 19.5 46.5t46.5 19.5t46.5 -19.5t19.5 -46.5t-19.5 -46.5t-46.5 -19.5t-46.5 19.5t-19.5 46.5zM75 474h90v-474h-90v474z" />
    <glyph glyph-name="j" unicode="j" horiz-adv-x="240" 
d="M54 644q0 27 19.5 46.5t46.5 19.5t46.5 -19.5t19.5 -46.5t-19.5 -46.5t-46.5 -19.5t-46.5 19.5t-19.5 46.5zM165 474v-542q0 -18 -2.5 -47.5t-16 -57t-43 -47.5t-83.5 -20q-15 0 -29.5 2t-28.5 7l10 83q8 -3 18 -5.5t19 -2.5q37 0 51.5 23.5t14.5 68.5v538h90z" />
    <glyph glyph-name="k" unicode="k" horiz-adv-x="519" 
d="M68 756h90v-488l204 205h125l-221 -215l240 -258h-128l-220 246v-246h-90v756z" />
    <glyph glyph-name="l" unicode="l" horiz-adv-x="240" 
d="M75 756h90v-756h-90v756z" />
    <glyph glyph-name="m" unicode="m" horiz-adv-x="852" 
d="M68 474h84v-74h2q3 10 15.5 25t32 28.5t46 23t58.5 9.5q53 0 89 -22t59 -66q23 44 65 66t85 22q55 0 90 -18t55 -47.5t27.5 -67t7.5 -77.5v-276h-90v264q0 27 -3.5 52t-14.5 44t-31 30.5t-53 11.5q-65 0 -93 -40t-28 -103v-259h-90v248q0 34 -3.5 62t-14 48.5t-30 32
t-52.5 11.5q-24 0 -46.5 -9.5t-39.5 -28.5t-27 -48.5t-10 -69.5v-246h-90v474z" />
    <glyph glyph-name="n" unicode="n" 
d="M68 474h90v-73h2q17 38 59 61.5t97 23.5q34 0 65.5 -10.5t55 -32.5t37.5 -56.5t14 -81.5v-305h-90v280q0 33 -9 56.5t-24 38t-34.5 21t-40.5 6.5q-28 0 -52 -9t-42 -28.5t-28 -49.5t-10 -71v-244h-90v474z" />
    <glyph glyph-name="o" unicode="o" horiz-adv-x="594" 
d="M45 237q0 52 19.5 97t53.5 79t80 53.5t99 19.5t99 -19.5t80 -53.5t53.5 -79t19.5 -97t-19.5 -97.5t-53.5 -79t-80 -53t-99 -19.5t-99 19.5t-80 53t-53.5 79t-19.5 97.5zM141 237q0 -36 11 -66.5t31 -52t49 -34t65 -12.5t65 12.5t49 34t31 52t11 66.5t-11 66.5t-31 52
t-49 34t-65 12.5t-65 -12.5t-49 -34t-31 -52t-11 -66.5z" />
    <glyph glyph-name="p" unicode="p" horiz-adv-x="611" 
d="M314 402q-36 0 -65 -12.5t-49 -34t-31 -52t-11 -66.5t11 -66.5t31 -52t49 -34t65 -12.5t65 12.5t49 34t31 52t11 66.5t-11 66.5t-31 52t-49 34t-65 12.5zM68 474h90v-68h2q26 38 71.5 59t93.5 21q55 0 99.5 -19t76 -53t48.5 -79.5t17 -97.5q0 -53 -17 -98.5t-48.5 -79
t-76 -52.5t-99.5 -19q-51 0 -96 21.5t-69 58.5h-2v-350h-90v756z" />
    <glyph glyph-name="q" unicode="q" horiz-adv-x="611" 
d="M297 402q-36 0 -65 -12.5t-49 -34t-31 -52t-11 -66.5t11 -66.5t31 -52t49 -34t65 -12.5t65 12.5t49 34t31 52t11 66.5t-11 66.5t-31 52t-49 34t-65 12.5zM543 -228h-90v296h-2q-24 -37 -69 -58.5t-96 -21.5q-55 0 -99.5 19t-76 52.5t-48.5 79t-17 98.5q0 52 17 97.5
t48.5 79.5t76 53t99.5 19q48 0 93.5 -21t71.5 -59h2v68h90v-702z" />
    <glyph glyph-name="r" unicode="r" horiz-adv-x="370" 
d="M68 474h90v-73h2q9 19 24 34.5t33.5 26.5t40.5 17.5t44 6.5t40 -6l-4 -97q-11 3 -22 5t-22 2q-66 0 -101 -37t-35 -115v-238h-90v474z" />
    <glyph glyph-name="s" unicode="s" horiz-adv-x="444" 
d="M320 355q-16 20 -39.5 33.5t-57.5 13.5q-32 0 -55.5 -13.5t-23.5 -39.5q0 -21 13.5 -34t32 -21t39.5 -12l36 -7q29 -7 54.5 -17t44 -26t29 -39t10.5 -56q0 -40 -17 -68.5t-44 -46.5t-61.5 -26t-69.5 -8q-59 0 -103.5 18t-79.5 66l68 56q22 -22 49 -39t66 -17
q17 0 34.5 3.5t31 11t22 19t8.5 26.5q0 20 -12.5 33t-30 20.5t-37 12t-34.5 7.5q-29 7 -55 16t-46 24t-32 38t-12 57q0 37 15.5 64.5t41 45.5t58 27t65.5 9q48 0 92 -18t70 -60z" />
    <glyph glyph-name="t" unicode="t" horiz-adv-x="370" 
d="M322 396h-129v-215q0 -20 1 -39.5t7.5 -35t20 -25t39.5 -9.5q16 0 33 3t31 11v-82q-16 -9 -41.5 -12.5t-39.5 -3.5q-52 0 -80.5 14.5t-42 37.5t-16 51.5t-2.5 57.5v247h-104v78h104v133h90v-133h129v-78z" />
    <glyph glyph-name="u" unicode="u" 
d="M488 0h-90v73h-2q-17 -38 -59 -61.5t-97 -23.5q-35 0 -66 10.5t-54.5 32.5t-37.5 56.5t-14 81.5v305h90v-280q0 -33 9 -56.5t24 -38t34.5 -21t40.5 -6.5q28 0 52 9t42 28.5t28 49.5t10 71v244h90v-474z" />
    <glyph glyph-name="v" unicode="v" horiz-adv-x="500" 
d="M11 474h104l142 -363l136 363h96l-186 -474h-99z" />
    <glyph glyph-name="w" unicode="w" horiz-adv-x="759" 
d="M11 474h101l107 -354h2l113 354h95l120 -354h2l102 354h95l-153 -474h-91l-125 354h-2l-113 -354h-97z" />
    <glyph glyph-name="x" unicode="x" horiz-adv-x="519" 
d="M198 253l-168 221h116l115 -168l113 168h109l-162 -221l192 -253h-116l-140 199l-140 -199h-111z" />
    <glyph glyph-name="y" unicode="y" horiz-adv-x="500" 
d="M11 474h104l141 -370h2l134 370h97l-225 -576q-12 -31 -25 -56.5t-31 -43.5t-43.5 -28t-62.5 -10q-20 0 -40.5 2.5t-39.5 10.5l11 82q27 -11 54 -11q21 0 35.5 5.5t25 16t17.5 24.5t14 32l29 75z" />
    <glyph glyph-name="z" unicode="z" horiz-adv-x="463" 
d="M35 81l269 315h-260v78h370v-80l-271 -316h285v-78h-393v81z" />
    <glyph glyph-name="braceleft" unicode="{" horiz-adv-x="333" 
d="M304 660h-45q-15 0 -24.5 -7.5t-15.5 -20t-8.5 -28t-2.5 -31.5v-151q1 -35 -8.5 -59t-23.5 -40t-28.5 -24t-23.5 -10v-3q9 -1 23.5 -8t28.5 -22t23.5 -40.5t8.5 -63.5v-150q0 -15 2.5 -30.5t8.5 -28t15.5 -20t24.5 -7.5h45v-72h-75q-19 0 -37.5 9t-33.5 27.5t-24.5 47.5
t-9.5 69v134q-2 55 -26 86t-58 31v78q34 0 58 31t26 86v158q0 32 9.5 56.5t24.5 41t33.5 25t37.5 8.5h75v-72z" />
    <glyph glyph-name="bar" unicode="|" horiz-adv-x="222" 
d="M72 756h78v-774h-78v774z" />
    <glyph glyph-name="braceright" unicode="}" horiz-adv-x="333" 
d="M29 -84h45q15 0 24.5 7.5t15.5 20t8.5 28t2.5 31.5v151q-1 35 8.5 59t23.5 40t28.5 24t23.5 10v3q-9 1 -23.5 8t-28.5 22t-23.5 40.5t-8.5 63.5v150q0 15 -2.5 30.5t-8.5 28t-15.5 20t-24.5 7.5h-45v72h75q19 0 37.5 -9t33.5 -27.5t24.5 -47.5t9.5 -69v-134q0 -55 25 -86
t59 -31v-78q-34 0 -59 -31t-25 -86v-158q0 -32 -9.5 -56.5t-24.5 -41t-33.5 -25t-37.5 -8.5h-75v72z" />
    <glyph glyph-name="asciitilde" unicode="~" horiz-adv-x="666" 
d="M570 316q-30 -51 -62.5 -69.5t-65.5 -18.5q-29 0 -58 11t-58 25t-55.5 25t-50.5 11q-16 0 -29 -6.5t-23 -17t-18 -23t-14 -25.5l-40 62q23 39 54 63.5t79 24.5q30 0 58.5 -11t54.5 -25t51 -25.5t48 -11.5q24 0 46 15.5t43 57.5z" />
    <glyph glyph-name="Euro" 
d="M504 609q-23 17 -56.5 25.5t-74.5 8.5q-65 0 -112.5 -39.5t-69.5 -120.5h276l-17 -67h-271q-2 -17 -3 -35t-1 -38v-25t1 -23h242l-17 -65h-219q13 -84 52.5 -126t114.5 -42q42 0 72.5 16.5t52.5 42.5l49 -49q-26 -35 -73 -59.5t-105 -24.5q-107 0 -169 61.5t-81 180.5
h-72l19 65h46q-1 12 -1 24v27q0 37 3 70h-66l21 67h57q14 60 40 104.5t62 74t79.5 44t93.5 14.5q42 0 82 -10t66 -26z" />
    <glyph glyph-name="Euro" unicode="&#x20ac;" 
d="M504 609q-23 17 -56.5 25.5t-74.5 8.5q-65 0 -112.5 -39.5t-69.5 -120.5h276l-17 -67h-271q-2 -17 -3 -35t-1 -38v-25t1 -23h242l-17 -65h-219q13 -84 52.5 -126t114.5 -42q42 0 72.5 16.5t52.5 42.5l49 -49q-26 -35 -73 -59.5t-105 -24.5q-107 0 -169 61.5t-81 180.5
h-72l19 65h46q-1 12 -1 24v27q0 37 3 70h-66l21 67h57q14 60 40 104.5t62 74t79.5 44t93.5 14.5q42 0 82 -10t66 -26z" />
    <glyph glyph-name="quotesinglbase" unicode="&#x201a;" horiz-adv-x="278" 
d="M138 -132h-82l69 246h97z" />
    <glyph glyph-name="florin" unicode="&#x192;" 
d="M449 353h-134l-73 -368q-11 -59 -53.5 -94t-103.5 -35q-29 0 -52.5 7t-44.5 18l38 71q31 -12 54 -12q22 0 35.5 8.5t22 21.5t12.5 29t7 30l63 324h-108v72h122l27 141q14 69 55 111.5t98 42.5q32 0 63 -5.5t54 -18.5l-40 -75q-11 8 -23.5 11.5t-34.5 3.5q-26 0 -50.5 -22
t-34.5 -78l-19 -111h120v-72z" />
    <glyph glyph-name="quotedblbase" unicode="&#x201e;" horiz-adv-x="519" 
d="M347 -132h-82l69 246h97zM170 -132h-82l69 246h97z" />
    <glyph glyph-name="ellipsis" unicode="&#x2026;" horiz-adv-x="1000" 
d="M833 -6q-27 0 -46.5 19.5t-19.5 46.5t19.5 46.5t46.5 19.5t46.5 -19.5t19.5 -46.5t-19.5 -46.5t-46.5 -19.5zM500 -6q-27 0 -46.5 19.5t-19.5 46.5t19.5 46.5t46.5 19.5t46.5 -19.5t19.5 -46.5t-19.5 -46.5t-46.5 -19.5zM167 -6q-27 0 -46.5 19.5t-19.5 46.5t19.5 46.5
t46.5 19.5t46.5 -19.5t19.5 -46.5t-19.5 -46.5t-46.5 -19.5z" />
    <glyph glyph-name="dagger" unicode="&#x2020;" 
d="M233 427h-198v78h198v203h90v-203h198v-78h-198v-553h-90v553z" />
    <glyph glyph-name="daggerdbl" unicode="&#x2021;" 
d="M233 66h-192v78h192v306h-192v78h192v180h90v-180h192v-78h-192v-306h192v-78h-192v-192h-90v192z" />
    <glyph glyph-name="circumflex" unicode="&#x2c6;" horiz-adv-x="240" 
d="M194 564l-74 96l-74 -96h-91l112 144h106l112 -144h-91z" />
    <glyph glyph-name="perthousand" unicode="&#x2030;" horiz-adv-x="1056" 
d="M92 558q0 -38 26 -64.5t64 -26.5t64.5 26.5t26.5 64.5t-26.5 64t-64.5 26t-64 -26t-26 -64zM20 558q0 34 12.5 63.5t34.5 51.5t51.5 34.5t63.5 12.5t63.5 -12.5t51.5 -34.5t35 -51.5t13 -63.5t-13 -63.5t-35 -51.5t-51.5 -35t-63.5 -13t-63.5 13t-51.5 35t-34.5 51.5
t-12.5 63.5zM155 -31l-62 31l445 740l60 -30zM873 54q38 0 64.5 26.5t26.5 64.5t-26.5 64t-64.5 26t-64 -26t-26 -64t26 -64.5t64 -26.5zM711 145q0 34 12.5 63.5t34.5 51.5t51.5 34.5t63.5 12.5t63.5 -12.5t51.5 -34.5t35 -51.5t13 -63.5t-13 -63.5t-35 -51.5t-51.5 -35
t-63.5 -13t-63.5 13t-51.5 35t-34.5 51.5t-12.5 63.5zM507 54q38 0 64.5 26.5t26.5 64.5t-26.5 64t-64.5 26t-64 -26t-26 -64t26 -64.5t64 -26.5zM507 -18q-34 0 -63.5 13t-51.5 35t-34.5 51.5t-12.5 63.5t12.5 63.5t34.5 51.5t51.5 34.5t63.5 12.5t63.5 -12.5t51.5 -34.5
t35 -51.5t13 -63.5t-13 -63.5t-35 -51.5t-51.5 -35t-63.5 -13z" />
    <glyph glyph-name="Scaron" unicode="&#x160;" 
d="M112 148q26 -39 66.5 -57.5t83.5 -18.5q24 0 49 7.5t45.5 22.5t33.5 37t13 51q0 41 -26 62.5t-64.5 36t-84 28t-84 37.5t-64.5 64.5t-26 109.5q0 31 13.5 66t42.5 64t74.5 48.5t109.5 19.5q58 0 111 -16t93 -65l-78 -71q-18 28 -51 45t-75 17q-40 0 -66.5 -10.5
t-42.5 -27t-22.5 -35.5t-6.5 -35q0 -45 26 -69t64.5 -39t84 -27t84 -33.5t64.5 -58t26 -100.5q0 -51 -19.5 -92t-52.5 -69t-78 -43t-96 -15q-68 0 -129 24t-97 74zM113 892h87l78 -96l74 96h91l-112 -144h-106z" />
    <glyph glyph-name="guilsinglleft" unicode="&#x2039;" horiz-adv-x="315" 
d="M54 243l145 216l62 -41l-117 -175l118 -175l-62 -41z" />
    <glyph glyph-name="OE" unicode="&#x152;" horiz-adv-x="981" 
d="M521 618h-61q-74 0 -130 -21.5t-93.5 -57.5t-57 -84t-19.5 -101q0 -56 19.5 -104.5t57 -84t93.5 -55.5t130 -20h61v528zM923 0h-456q-98 0 -174 26.5t-128.5 73.5t-79.5 112t-27 142q0 80 28 145.5t81 112t128.5 71.5t171.5 25h444v-90h-294v-211h276v-90h-276v-227h306
v-90z" />
    <glyph glyph-name="Zcaron" horiz-adv-x="593" 
d="M32 90l403 528h-391v90h511v-90l-401 -528h407v-90h-529v90zM132 892h87l78 -96l74 96h91l-112 -144h-106z" />
    <glyph glyph-name="Zcaron" unicode="&#x17d;" horiz-adv-x="593" 
d="M32 90l403 528h-391v90h511v-90l-401 -528h407v-90h-529v90zM132 892h87l78 -96l74 96h91l-112 -144h-106z" />
    <glyph glyph-name="quoteleft" unicode="&#x2018;" horiz-adv-x="278" 
d="M140 708h82l-69 -246h-97z" />
    <glyph glyph-name="quoteright" unicode="&#x2019;" horiz-adv-x="278" 
d="M138 462h-82l69 246h97z" />
    <glyph glyph-name="quotedblleft" unicode="&#x201c;" horiz-adv-x="519" 
d="M362 462h-97l84 246h82zM185 462h-97l84 246h82z" />
    <glyph glyph-name="quotedblright" unicode="&#x201d;" horiz-adv-x="519" 
d="M347 462h-82l69 246h97zM170 462h-82l69 246h97z" />
    <glyph glyph-name="bullet" unicode="&#x2022;" horiz-adv-x="500" 
d="M73 354q0 37 14 69t38 56t56 38t69 14t69 -14t56 -38t38 -56t14 -69t-14 -69t-38 -56t-56 -38t-69 -14t-69 14t-56 38t-38 56t-14 69z" />
    <glyph glyph-name="endash" unicode="&#x2013;" horiz-adv-x="500" 
d="M500 204h-500v78h500v-78z" />
    <glyph glyph-name="emdash" unicode="&#x2014;" horiz-adv-x="1000" 
d="M1000 204h-1000v78h1000v-78z" />
    <glyph glyph-name="tilde" unicode="&#x2dc;" horiz-adv-x="240" 
d="M-48 576q3 19 11 38t20.5 33.5t30 23.5t39.5 9q23 0 43.5 -7.5l40.5 -15.5q15 -6 26.5 -11.5t27.5 -5.5q20 0 32 13t17 31h48q-3 -19 -10 -37.5t-18 -33.5t-27.5 -24t-38.5 -9q-21 0 -41.5 6.5t-39.5 14.5l-32 12.5t-34 6.5q-19 0 -30.5 -13.5t-16.5 -30.5h-48z" />
    <glyph glyph-name="trademark" unicode="&#x2122;" horiz-adv-x="1000" 
d="M439 708h119l111 -316h3l111 316h119v-412h-78v344h-2l-120 -344h-63l-120 344h-2v-344h-78v412zM158 642h-124v66h326v-66h-124v-346h-78v346z" />
    <glyph glyph-name="scaron" unicode="&#x161;" horiz-adv-x="444" 
d="M320 355q-16 20 -39.5 33.5t-57.5 13.5q-32 0 -55.5 -13.5t-23.5 -39.5q0 -21 13.5 -34t32 -21t39.5 -12l36 -7q29 -7 54.5 -17t44 -26t29 -39t10.5 -56q0 -40 -17 -68.5t-44 -46.5t-61.5 -26t-69.5 -8q-59 0 -103.5 18t-79.5 66l68 56q22 -22 49 -39t66 -17
q17 0 34.5 3.5t31 11t22 19t8.5 26.5q0 20 -12.5 33t-30 20.5t-37 12t-34.5 7.5q-29 7 -55 16t-46 24t-32 38t-12 57q0 37 15.5 64.5t41 45.5t58 27t65.5 9q48 0 92 -18t70 -60zM57 708h87l78 -96l74 96h91l-112 -144h-106z" />
    <glyph glyph-name="guilsinglright" unicode="&#x203a;" horiz-adv-x="315" 
d="M54 68l117 175l-118 175l62 41l146 -216l-145 -216z" />
    <glyph glyph-name="oe" unicode="&#x153;" horiz-adv-x="926" 
d="M438 237q0 32 -8.5 63t-26.5 55t-46.5 38.5t-68.5 14.5q-38 0 -67 -13.5t-48 -36.5t-28.5 -54t-9.5 -67q0 -35 9.5 -66t28 -54.5t45.5 -37t62 -13.5q46 0 76.5 14.5t48.5 38.5t25.5 55t7.5 63zM791 276q-1 25 -9 50t-24 44.5t-40 31.5t-56 12t-57 -13.5t-42 -33.5
t-26 -44.5t-9 -46.5h263zM868 86q-68 -98 -199 -98q-58 0 -111 21.5t-83 70.5q-9 -13 -23.5 -29t-37 -30t-55.5 -23.5t-79 -9.5q-57 0 -102 19t-76 52.5t-47 79t-16 98.5q0 54 18 99.5t50.5 78.5t77.5 52t100 19q62 0 109 -22t83 -69q12 16 29 32t39.5 29t52 21.5t66.5 8.5
q51 0 92 -17.5t70 -49t45 -75t16 -96.5v-44h-359q0 -26 8 -51t25.5 -44.5t44.5 -31t65 -11.5q43 0 73 18.5t50 50.5z" />
    <glyph glyph-name="zcaron" horiz-adv-x="463" 
d="M35 81l269 315h-260v78h370v-80l-271 -316h285v-78h-393v81zM67 708h87l78 -96l74 96h91l-112 -144h-106z" />
    <glyph glyph-name="zcaron" unicode="&#x17e;" horiz-adv-x="463" 
d="M35 81l269 315h-260v78h370v-80l-271 -316h285v-78h-393v81zM67 708h87l78 -96l74 96h91l-112 -144h-106z" />
    <glyph glyph-name="Ydieresis" unicode="&#x178;" horiz-adv-x="612" 
d="M258 302l-268 406h123l193 -311l199 311h117l-268 -406v-302h-96v302zM408 898q23 0 42.5 -16t19.5 -41q0 -27 -17.5 -45t-44.5 -18t-44.5 18t-17.5 45q0 25 19.5 41t42.5 16zM204 898q23 0 42.5 -16t19.5 -41q0 -27 -17.5 -45t-44.5 -18t-44.5 18t-17.5 45q0 25 19.5 41
t42.5 16z" />
    <glyph glyph-name="exclamdown" unicode="&#xa1;" horiz-adv-x="278" 
d="M205 426q0 -27 -19.5 -46.5t-46.5 -19.5t-46.5 19.5t-19.5 46.5t19.5 46.5t46.5 19.5t46.5 -19.5t19.5 -46.5zM93 282h96v-504h-96v504z" />
    <glyph glyph-name="cent" unicode="&#xa2;" 
d="M288 408q-31 -5 -54.5 -20.5t-39.5 -38.5t-24 -51.5t-8 -58.5q0 -31 8.5 -59.5t24.5 -52t39.5 -39.5t53.5 -22v342zM342 66q63 2 106 52l59 -58q-29 -33 -71.5 -50.5t-93.5 -21.5v-66h-54v66q-50 5 -90 26t-68 54t-43 76.5t-15 92.5q0 51 15 93.5t43 74.5t68 53t90 28v66
h54v-66q48 -2 92.5 -21.5t74.5 -54.5l-65 -59q-19 23 -46 39.5t-56 17.5v-342z" />
    <glyph glyph-name="sterling" unicode="&#xa3;" 
d="M432 328h-162v-244h246v-84h-444v84h102v244h-96v72h96v100q0 43 14 83t41.5 70.5t68.5 48.5t96 18q48 0 91 -14.5t78 -47.5l-61 -70q-23 22 -48 35t-50 13q-26 0 -50.5 -8.5t-43 -27.5t-29.5 -49.5t-11 -74.5v-76h162v-72z" />
    <glyph glyph-name="currency" unicode="&#xa4;" 
d="M99 355q0 -37 14 -69.5t38.5 -57t57 -38.5t69.5 -14t69.5 14t57 38.5t38.5 57t14 69.5t-14 69.5t-38.5 57t-57 38.5t-69.5 14t-69.5 -14t-57 -38.5t-38.5 -57t-14 -69.5zM78 611l49 -48q35 25 73.5 37t77.5 12t77.5 -12t73.5 -37l49 48l57 -56l-49 -49q25 -34 37 -72.5
t12 -78.5t-12 -78.5t-37 -72.5l49 -49l-57 -57l-49 49q-33 -25 -71.5 -37t-79.5 -12q-82 0 -151 49l-49 -49l-57 57l49 49q-24 33 -36.5 72t-12.5 79q0 41 12.5 79.5t36.5 71.5l-49 49z" />
    <glyph glyph-name="yen" unicode="&#xa5;" 
d="M236 186h-171v66h171v53l-17 28h-154v66h114l-184 309h100l179 -316l185 316h102l-186 -309h116v-66h-154l-17 -28v-53h171v-66h-171v-186h-84v186z" />
    <glyph glyph-name="brokenbar" unicode="&#xa6;" horiz-adv-x="222" 
d="M72 756h78v-304h-78v304zM72 286h78v-304h-78v304z" />
    <glyph glyph-name="section" unicode="&#xa7;" 
d="M243 400q-14 -5 -27 -12t-23.5 -16.5t-17 -22t-6.5 -28.5q0 -23 9.5 -39t23.5 -27t31.5 -19.5l33.5 -16.5l77 -37q23 14 41.5 38t18.5 50q0 18 -7.5 32t-19.5 25t-26.5 19.5t-28.5 15.5zM399 580q-13 32 -39.5 46.5t-61.5 15.5q-39 0 -69 -19t-30 -59q0 -30 22 -50
t54.5 -36.5t71 -32.5t71 -38t54.5 -52.5t22 -75.5q0 -44 -22.5 -77.5t-60.5 -53.5q31 -21 48 -51.5t17 -69.5q0 -43 -18 -75t-47.5 -53.5t-67.5 -32t-77 -10.5q-66 0 -121.5 28.5t-82.5 92.5l87 41q14 -42 47.5 -60t76.5 -18q19 0 37 5t32.5 15.5t23 27t8.5 39.5
q0 26 -22 45t-54.5 35.5t-71 33.5t-71 37.5t-54.5 48t-22 66.5q0 60 27.5 95t70.5 56q-36 20 -58 49t-22 69t18 71t46.5 51.5t65 31t73.5 10.5q27 0 54.5 -5.5t52 -17.5t44.5 -31t32 -46z" />
    <glyph glyph-name="dieresis" unicode="&#xa8;" horiz-adv-x="240" 
d="M222 714q23 0 42.5 -16t19.5 -41q0 -27 -17.5 -45t-44.5 -18t-44.5 18t-17.5 45q0 25 19.5 41t42.5 16zM18 714q23 0 42.5 -16t19.5 -41q0 -27 -17.5 -45t-44.5 -18t-44.5 18t-17.5 45q0 25 19.5 41t42.5 16z" />
    <glyph glyph-name="copyright" unicode="&#xa9;" horiz-adv-x="800" 
d="M94 354q0 -63 24 -119t65.5 -97.5t97.5 -65.5t119 -24t119 24t97.5 65.5t65.5 97.5t24 119t-24 119t-65.5 97.5t-97.5 65.5t-119 24t-119 -24t-97.5 -65.5t-65.5 -97.5t-24 -119zM589 286q-16 -72 -65 -114.5t-121 -42.5q-52 0 -93.5 16.5t-70 46.5t-43.5 72t-15 93
t14.5 93t42 72t68.5 46.5t94 16.5q75 0 126 -38.5t63 -114.5h-77q-10 37 -35.5 59t-75.5 22q-72 0 -107 -41t-35 -113q0 -33 9.5 -61.5t28 -50t45.5 -34t61 -12.5q48 0 74.5 23t34.5 62h77zM28 354q0 77 29.5 144.5t80 118t118 80t144.5 29.5t144.5 -29.5t118 -80t80 -118
t29.5 -144.5t-29.5 -144.5t-80 -118t-118 -80t-144.5 -29.5t-144.5 29.5t-118 80t-80 118t-29.5 144.5z" />
    <glyph glyph-name="ordfeminine" unicode="&#xaa;" horiz-adv-x="337" 
d="M240 560q-21 0 -45.5 -1t-45.5 -5.5t-35 -15t-14 -29.5q0 -21 18.5 -28.5t41.5 -7.5q42 0 62 19t20 49v19h-2zM242 425v44l-2 1q-14 -29 -39.5 -40t-60.5 -11q-20 0 -39 5.5t-34 16t-24 26.5t-9 38q0 37 20 58t50 31t64 12t62 2h12v10q0 20 -17.5 34t-50.5 14
q-25 0 -48 -8t-41 -25l-35 45q24 21 57 31.5t66 10.5q43 0 70 -8.5t41 -22t19 -31.5t5 -37v-196h-66z" />
    <glyph glyph-name="guillemotleft" unicode="&#xab;" horiz-adv-x="500" 
d="M245 243l145 216l62 -41l-117 -175l118 -175l-62 -41zM47 243l145 216l62 -41l-117 -175l118 -175l-62 -41z" />
    <glyph glyph-name="logicalnot" unicode="&#xac;" horiz-adv-x="666" 
d="M600 141h-78v201h-456v78h534v-279z" />
    <glyph glyph-name="registered" unicode="&#xae;" horiz-adv-x="800" 
d="M94 354q0 -63 24 -119t65.5 -97.5t97.5 -65.5t119 -24t119 24t97.5 65.5t65.5 97.5t24 119t-24 119t-65.5 97.5t-97.5 65.5t-119 24t-119 -24t-97.5 -65.5t-65.5 -97.5t-24 -119zM28 354q0 77 29.5 144.5t80 118t118 80t144.5 29.5t144.5 -29.5t118 -80t80 -118
t29.5 -144.5t-29.5 -144.5t-80 -118t-118 -80t-144.5 -29.5t-144.5 29.5t-118 80t-80 118t-29.5 144.5zM335 384h57q18 0 36 1.5t32.5 7.5t23.5 18t9 33t-9 33t-23.5 18t-32.5 7t-36 1h-57v-119zM257 569h164q77 0 113.5 -33t36.5 -95q0 -56 -29 -84t-73 -33l111 -180h-82
l-106 174h-57v-174h-78v425z" />
    <glyph glyph-name="macron" unicode="&#xaf;" horiz-adv-x="240" 
d="M264 600h-288v66h288v-66z" />
    <glyph glyph-name="macron" unicode="&#x2c9;" horiz-adv-x="240" 
d="M264 600h-288v66h288v-66z" />
    <glyph glyph-name="degree" unicode="&#xb0;" horiz-adv-x="400" 
d="M117 571q0 -35 24 -59t59 -24t59 24t24 59t-24 59t-59 24t-59 -24t-24 -59zM51 571q0 31 11.5 58t32 47t47.5 32t58 12t58 -12t47 -32t32 -47t12 -58t-12 -58t-32 -47.5t-47 -32t-58 -11.5t-58 11.5t-47.5 32t-32 47.5t-11.5 58z" />
    <glyph glyph-name="plusminus" unicode="&#xb1;" horiz-adv-x="666" 
d="M66 129h534v-78h-534v78zM66 393h228v163h78v-163h228v-78h-228v-150h-78v150h-228v78z" />
    <glyph glyph-name="twosuperior" unicode="&#xb2;" horiz-adv-x="361" 
d="M26 365l179 160q15 14 30 32t15 41q0 26 -19 41t-46 15q-29 0 -47.5 -16t-20.5 -43l-84 6q5 58 47.5 88.5t104.5 30.5q31 0 58 -7.5t47.5 -22.5t32 -37.5t11.5 -52.5q0 -40 -20 -69t-51 -55l-141 -121h213v-66h-309v76z" />
    <glyph glyph-name="threesuperior" unicode="&#xb3;" horiz-adv-x="361" 
d="M140 543h18q17 0 33 1.5t29 7.5t20.5 17.5t7.5 30.5q0 24 -18 39t-47 15q-24 0 -42.5 -11.5t-26.5 -33.5l-83 20q15 48 56 69.5t92 21.5q30 0 56.5 -7t46.5 -21t32 -35t12 -49q0 -35 -21 -61.5t-57 -34.5v-2q44 -5 66.5 -34.5t22.5 -68.5q0 -30 -12.5 -53t-34 -39
t-49.5 -24t-59 -8q-57 0 -100 23t-58 76l83 20q8 -25 25.5 -39t49.5 -14q31 0 54 17.5t23 46.5q0 21 -9 33.5t-24 19.5t-33 9t-36 2h-17v66z" />
    <glyph glyph-name="acute" unicode="&#xb4;" horiz-adv-x="240" 
d="M158 708h128l-149 -144h-83z" />
    <glyph glyph-name="mu" unicode="&#xb5;" 
d="M68 474h90v-280q0 -33 9 -56.5t24 -38t34.5 -21t40.5 -6.5q28 0 52 9t42 28.5t28 49.5t10 71v244h90v-474h-90v73h-2q-17 -38 -59 -61.5t-97 -23.5q-46 0 -82 18v-234h-90v702z" />
    <glyph glyph-name="mu" unicode="&#x3bc;" 
d="M68 474h90v-280q0 -33 9 -56.5t24 -38t34.5 -21t40.5 -6.5q28 0 52 9t42 28.5t28 49.5t10 71v244h90v-474h-90v73h-2q-17 -38 -59 -61.5t-97 -23.5q-46 0 -82 18v-234h-90v702z" />
    <glyph glyph-name="paragraph" unicode="&#xb6;" horiz-adv-x="600" 
d="M260 318q-46 0 -84.5 14.5t-66 39t-43 58.5t-15.5 73q0 98 61 151.5t167 53.5h249v-834h-78v768h-112v-768h-78v444z" />
    <glyph glyph-name="periodcentered" unicode="&#xb7;" horiz-adv-x="278" 
d="M73 303q0 27 19.5 46.5t46.5 19.5t46.5 -19.5t19.5 -46.5t-19.5 -46.5t-46.5 -19.5t-46.5 19.5t-19.5 46.5z" />
    <glyph glyph-name="periodcentered" unicode="&#x2219;" horiz-adv-x="278" 
d="M73 303q0 27 19.5 46.5t46.5 19.5t46.5 -19.5t19.5 -46.5t-19.5 -46.5t-46.5 -19.5t-46.5 19.5t-19.5 46.5z" />
    <glyph glyph-name="cedilla" unicode="&#xb8;" horiz-adv-x="240" 
d="M24 -165q37 -15 78 -15q9 0 19.5 2t20 6.5t15.5 12.5t6 21q0 19 -9.5 28t-23.5 11.5t-30.5 0t-30.5 -6.5l-21 18l61 87h49l-44 -61h29q17 0 33.5 -4t29.5 -13t21 -22.5t8 -32.5q0 -27 -11.5 -45t-29.5 -29t-40.5 -16t-43.5 -5q-27 0 -53.5 5.5t-51.5 17.5z" />
    <glyph glyph-name="onesuperior" unicode="&#xb9;" horiz-adv-x="361" 
d="M154 648l-85 -72l-42 46l128 98h71v-431h-72v359z" />
    <glyph glyph-name="ordmasculine" unicode="&#xba;" horiz-adv-x="386" 
d="M193 660q-45 0 -68.5 -24.5t-23.5 -66.5t23.5 -66t68.5 -24t68.5 24t23.5 66t-23.5 66.5t-68.5 24.5zM193 720q75 0 119.5 -41t44.5 -110t-44.5 -109.5t-119.5 -40.5t-119.5 40.5t-44.5 109.5t44.5 110t119.5 41z" />
    <glyph glyph-name="guillemotright" unicode="&#xbb;" horiz-adv-x="500" 
d="M255 243l-145 -216l-62 41l117 175l-118 175l62 41zM453 243l-145 -216l-62 41l117 175l-118 175l62 41z" />
    <glyph glyph-name="onequarter" unicode="&#xbc;" horiz-adv-x="834" 
d="M591 740l60 -32l-439 -740l-60 32zM667 347h-2l-116 -187h118v187zM673 94h-196v58l183 279h79v-271h62v-66h-62v-94h-66v94zM160 648l-85 -72l-42 46l128 98h71v-431h-72v359z" />
    <glyph glyph-name="onehalf" unicode="&#xbd;" horiz-adv-x="834" 
d="M579 740l60 -32l-439 -740l-60 32zM494 76l179 160q15 14 30 32t15 41q0 26 -19 41t-46 15q-29 0 -47.5 -16t-20.5 -43l-84 6q5 58 47.5 88.5t104.5 30.5q31 0 58 -7.5t47.5 -22.5t32 -37.5t11.5 -52.5q0 -40 -20 -69t-51 -55l-141 -121h213v-66h-309v76zM158 648
l-85 -72l-42 46l128 98h71v-431h-72v359z" />
    <glyph glyph-name="threequarters" unicode="&#xbe;" horiz-adv-x="834" 
d="M631 740l60 -32l-439 -740l-60 32zM693 347h-2l-116 -187h118v187zM693 94h-196v58l183 279h79v-271h62v-66h-62v-94h-66v94zM139 543h18q17 0 33 1.5t29 7.5t20.5 17.5t7.5 30.5q0 24 -18 39t-47 15q-24 0 -42.5 -11.5t-26.5 -33.5l-83 20q15 48 56 69.5t92 21.5
q30 0 56.5 -7t46.5 -21t32 -35t12 -49q0 -35 -21 -61.5t-57 -34.5v-2q44 -5 66.5 -34.5t22.5 -68.5q0 -30 -12.5 -53t-34 -39t-49.5 -24t-59 -8q-57 0 -100 23t-58 76l83 20q8 -25 25.5 -39t49.5 -14q31 0 54 17.5t23 46.5q0 21 -9 33.5t-24 19.5t-33 9t-36 2h-17v66z" />
    <glyph glyph-name="questiondown" unicode="&#xbf;" horiz-adv-x="500" 
d="M177 426q0 27 19.5 46.5t46.5 19.5t46.5 -19.5t19.5 -46.5t-19.5 -46.5t-46.5 -19.5t-46.5 19.5t-19.5 46.5zM290 288v-61q0 -27 -4 -45t-12 -32.5t-22 -28l-33 -32.5l-32 -30.5t-29 -32t-21.5 -35.5t-8.5 -41q0 -23 8.5 -42.5t22.5 -33.5t33.5 -22t41.5 -8q49 0 79.5 31
t36.5 81l102 -10q-13 -87 -72.5 -136.5t-147.5 -49.5q-42 0 -78.5 12.5t-63.5 36t-42.5 58t-15.5 78.5q0 38 11 66.5t31 53.5l60 62l10 9q16 15 25.5 25.5t15 22t7.5 25.5t2 35v44h96z" />
    <glyph glyph-name="Agrave" unicode="&#xc0;" horiz-adv-x="704" 
d="M485 259l-132 325h-2l-134 -325h268zM313 708h87l303 -708h-112l-71 175h-337l-70 -175h-112zM418 748h-83l-149 144h128z" />
    <glyph glyph-name="Aacute" unicode="&#xc1;" horiz-adv-x="704" 
d="M485 259l-132 325h-2l-134 -325h268zM313 708h87l303 -708h-112l-71 175h-337l-70 -175h-112zM390 892h128l-149 -144h-83z" />
    <glyph glyph-name="Acircumflex" unicode="&#xc2;" horiz-adv-x="704" 
d="M485 259l-132 325h-2l-134 -325h268zM313 708h87l303 -708h-112l-71 175h-337l-70 -175h-112zM426 748l-74 96l-74 -96h-91l112 144h106l112 -144h-91z" />
    <glyph glyph-name="Atilde" unicode="&#xc3;" horiz-adv-x="704" 
d="M485 259l-132 325h-2l-134 -325h268zM313 708h87l303 -708h-112l-71 175h-337l-70 -175h-112zM184 760q3 19 11 38t20.5 33.5t30 23.5t39.5 9q23 0 43.5 -7.5l40.5 -15.5q15 -6 26.5 -11.5t27.5 -5.5q20 0 32 13t17 31h48q-3 -19 -10 -37.5t-18 -33.5t-27.5 -24t-38.5 -9
q-21 0 -41.5 6.5t-39.5 14.5l-32 12.5t-34 6.5q-19 0 -30.5 -13.5t-16.5 -30.5h-48z" />
    <glyph glyph-name="Adieresis" unicode="&#xc4;" horiz-adv-x="704" 
d="M485 259l-132 325h-2l-134 -325h268zM313 708h87l303 -708h-112l-71 175h-337l-70 -175h-112zM454 898q23 0 42.5 -16t19.5 -41q0 -27 -17.5 -45t-44.5 -18t-44.5 18t-17.5 45q0 25 19.5 41t42.5 16zM250 898q23 0 42.5 -16t19.5 -41q0 -27 -17.5 -45t-44.5 -18t-44.5 18
t-17.5 45q0 25 19.5 41t42.5 16z" />
    <glyph glyph-name="Aring" unicode="&#xc5;" horiz-adv-x="704" 
d="M485 259l-132 325h-2l-134 -325h268zM313 708h87l303 -708h-112l-71 175h-337l-70 -175h-112zM412 825q0 25 -18 41t-42 16t-42 -16t-18 -41q0 -24 18.5 -40t41.5 -16t41.5 16t18.5 40zM250 825q0 21 8.5 39t22.5 31.5t32.5 21t38.5 7.5q21 0 39.5 -7.5t32.5 -21t22 -31
t8 -38.5t-8 -39t-22 -31.5t-32.5 -21t-39.5 -7.5q-20 0 -38.5 7.5t-32.5 21t-22.5 31t-8.5 38.5z" />
    <glyph glyph-name="AE" unicode="&#xc6;" horiz-adv-x="963" 
d="M515 262v356h-19l-233 -356h252zM450 708h456v-90h-295v-211h277v-90h-277v-227h307v-90h-403v172h-304l-101 -172h-118z" />
    <glyph glyph-name="Ccedilla" unicode="&#xc7;" horiz-adv-x="704" 
d="M584 555q-30 39 -76 60t-95 21q-60 0 -108.5 -22.5t-83 -61.5t-53.5 -91.5t-19 -112.5q0 -56 18 -106t52 -88t83 -60t111 -22q61 0 107 25t78 70l81 -61q-8 -11 -28 -31.5t-53 -41t-79.5 -36t-107.5 -15.5q-84 0 -151.5 32t-115 84t-72.5 117.5t-25 132.5q0 82 27 151.5
t75.5 120t116.5 78.5t150 28q70 0 137.5 -27t110.5 -83zM276 -165q37 -15 78 -15q9 0 19.5 2t20 6.5t15.5 12.5t6 21q0 19 -9.5 28t-23.5 11.5t-30.5 0t-30.5 -6.5l-21 18l61 87h49l-44 -61h29q17 0 33.5 -4t29.5 -13t21 -22.5t8 -32.5q0 -27 -11.5 -45t-29.5 -29t-40.5 -16
t-43.5 -5q-27 0 -53.5 5.5t-51.5 17.5z" />
    <glyph glyph-name="Egrave" unicode="&#xc8;" horiz-adv-x="611" 
d="M91 708h457v-90h-361v-211h336v-90h-336v-227h379v-90h-475v708zM372 748h-83l-149 144h128z" />
    <glyph glyph-name="Eacute" unicode="&#xc9;" horiz-adv-x="611" 
d="M91 708h457v-90h-361v-211h336v-90h-336v-227h379v-90h-475v708zM344 892h128l-149 -144h-83z" />
    <glyph glyph-name="Ecircumflex" unicode="&#xca;" horiz-adv-x="611" 
d="M91 708h457v-90h-361v-211h336v-90h-336v-227h379v-90h-475v708zM380 748l-74 96l-74 -96h-91l112 144h106l112 -144h-91z" />
    <glyph glyph-name="Edieresis" unicode="&#xcb;" horiz-adv-x="611" 
d="M91 708h457v-90h-361v-211h336v-90h-336v-227h379v-90h-475v708zM408 898q23 0 42.5 -16t19.5 -41q0 -27 -17.5 -45t-44.5 -18t-44.5 18t-17.5 45q0 25 19.5 41t42.5 16zM204 898q23 0 42.5 -16t19.5 -41q0 -27 -17.5 -45t-44.5 -18t-44.5 18t-17.5 45q0 25 19.5 41
t42.5 16z" />
    <glyph glyph-name="Igrave" unicode="&#xcc;" horiz-adv-x="278" 
d="M91 708h96v-708h-96v708zM205 748h-83l-149 144h128z" />
    <glyph glyph-name="Iacute" unicode="&#xcd;" horiz-adv-x="278" 
d="M91 708h96v-708h-96v708zM177 892h128l-149 -144h-83z" />
    <glyph glyph-name="Icircumflex" unicode="&#xce;" horiz-adv-x="278" 
d="M91 708h96v-708h-96v708zM213 748l-74 96l-74 -96h-91l112 144h106l112 -144h-91z" />
    <glyph glyph-name="Idieresis" unicode="&#xcf;" horiz-adv-x="278" 
d="M91 708h96v-708h-96v708zM241 898q23 0 42.5 -16t19.5 -41q0 -27 -17.5 -45t-44.5 -18t-44.5 18t-17.5 45q0 25 19.5 41t42.5 16zM37 898q23 0 42.5 -16t19.5 -41q0 -27 -17.5 -45t-44.5 -18t-44.5 18t-17.5 45q0 25 19.5 41t42.5 16z" />
    <glyph glyph-name="Eth" unicode="&#xd0;" horiz-adv-x="741" 
d="M171 90h121q61 0 115.5 16.5t95.5 49.5t65 82.5t24 115.5q0 34 -11 79.5t-41.5 86.5t-84.5 69.5t-140 28.5h-144v-216h234v-66h-234v-246zM75 336h-72v66h72v306h247q75 0 131.5 -17t98 -45.5t69 -65.5t43.5 -76t23 -78t7 -72q0 -68 -25 -131.5t-74 -113t-121.5 -79.5
t-167.5 -30h-231v336z" />
    <glyph glyph-name="Ntilde" unicode="&#xd1;" horiz-adv-x="796" 
d="M91 708h126l390 -582h2v582h96v-708h-122l-394 582h-2v-582h-96v708zM230 760q3 19 11 38t20.5 33.5t30 23.5t39.5 9q23 0 43.5 -7.5l40.5 -15.5q15 -6 26.5 -11.5t27.5 -5.5q20 0 32 13t17 31h48q-3 -19 -10 -37.5t-18 -33.5t-27.5 -24t-38.5 -9q-21 0 -41.5 6.5
t-39.5 14.5l-32 12.5t-34 6.5q-19 0 -30.5 -13.5t-16.5 -30.5h-48z" />
    <glyph glyph-name="Ograve" unicode="&#xd2;" horiz-adv-x="832" 
d="M416 72q61 0 110 22.5t84 60.5t54 89.5t19 109.5t-19 109.5t-54 89.5t-84 60.5t-110 22.5t-110 -22.5t-84 -60.5t-54 -89.5t-19 -109.5t19 -109.5t54 -89.5t84 -60.5t110 -22.5zM416 -18q-81 0 -149 28.5t-116.5 78.5t-76 118t-27.5 147t27.5 147t76 118t116.5 78.5
t149 28.5t149 -28.5t116.5 -78.5t76 -118t27.5 -147t-27.5 -147t-76 -118t-116.5 -78.5t-149 -28.5zM482 748h-83l-149 144h128z" />
    <glyph glyph-name="Oacute" unicode="&#xd3;" horiz-adv-x="832" 
d="M416 72q61 0 110 22.5t84 60.5t54 89.5t19 109.5t-19 109.5t-54 89.5t-84 60.5t-110 22.5t-110 -22.5t-84 -60.5t-54 -89.5t-19 -109.5t19 -109.5t54 -89.5t84 -60.5t110 -22.5zM416 -18q-81 0 -149 28.5t-116.5 78.5t-76 118t-27.5 147t27.5 147t76 118t116.5 78.5
t149 28.5t149 -28.5t116.5 -78.5t76 -118t27.5 -147t-27.5 -147t-76 -118t-116.5 -78.5t-149 -28.5zM454 892h128l-149 -144h-83z" />
    <glyph glyph-name="Ocircumflex" unicode="&#xd4;" horiz-adv-x="832" 
d="M416 72q61 0 110 22.5t84 60.5t54 89.5t19 109.5t-19 109.5t-54 89.5t-84 60.5t-110 22.5t-110 -22.5t-84 -60.5t-54 -89.5t-19 -109.5t19 -109.5t54 -89.5t84 -60.5t110 -22.5zM416 -18q-81 0 -149 28.5t-116.5 78.5t-76 118t-27.5 147t27.5 147t76 118t116.5 78.5
t149 28.5t149 -28.5t116.5 -78.5t76 -118t27.5 -147t-27.5 -147t-76 -118t-116.5 -78.5t-149 -28.5zM490 748l-74 96l-74 -96h-91l112 144h106l112 -144h-91z" />
    <glyph glyph-name="Otilde" unicode="&#xd5;" horiz-adv-x="832" 
d="M416 72q61 0 110 22.5t84 60.5t54 89.5t19 109.5t-19 109.5t-54 89.5t-84 60.5t-110 22.5t-110 -22.5t-84 -60.5t-54 -89.5t-19 -109.5t19 -109.5t54 -89.5t84 -60.5t110 -22.5zM416 -18q-81 0 -149 28.5t-116.5 78.5t-76 118t-27.5 147t27.5 147t76 118t116.5 78.5
t149 28.5t149 -28.5t116.5 -78.5t76 -118t27.5 -147t-27.5 -147t-76 -118t-116.5 -78.5t-149 -28.5zM248 760q3 19 11 38t20.5 33.5t30 23.5t39.5 9q23 0 43.5 -7.5l40.5 -15.5q15 -6 26.5 -11.5t27.5 -5.5q20 0 32 13t17 31h48q-3 -19 -10 -37.5t-18 -33.5t-27.5 -24
t-38.5 -9q-21 0 -41.5 6.5t-39.5 14.5l-32 12.5t-34 6.5q-19 0 -30.5 -13.5t-16.5 -30.5h-48z" />
    <glyph glyph-name="Odieresis" unicode="&#xd6;" horiz-adv-x="832" 
d="M416 72q61 0 110 22.5t84 60.5t54 89.5t19 109.5t-19 109.5t-54 89.5t-84 60.5t-110 22.5t-110 -22.5t-84 -60.5t-54 -89.5t-19 -109.5t19 -109.5t54 -89.5t84 -60.5t110 -22.5zM416 -18q-81 0 -149 28.5t-116.5 78.5t-76 118t-27.5 147t27.5 147t76 118t116.5 78.5
t149 28.5t149 -28.5t116.5 -78.5t76 -118t27.5 -147t-27.5 -147t-76 -118t-116.5 -78.5t-149 -28.5zM518 898q23 0 42.5 -16t19.5 -41q0 -27 -17.5 -45t-44.5 -18t-44.5 18t-17.5 45q0 25 19.5 41t42.5 16zM314 898q23 0 42.5 -16t19.5 -41q0 -27 -17.5 -45t-44.5 -18
t-44.5 18t-17.5 45q0 25 19.5 41t42.5 16z" />
    <glyph glyph-name="multiply" unicode="&#xd7;" horiz-adv-x="666" 
d="M278 303l-212 212l55 55l212 -212l213 212l54 -55l-212 -212l212 -212l-56 -55l-211 212l-211 -212l-54 56z" />
    <glyph glyph-name="Oslash" unicode="&#xd8;" horiz-adv-x="832" 
d="M55 8l85 93q-45 50 -69 114t-24 139q0 79 27.5 147t76 118t116.5 78.5t149 28.5q67 0 125 -20t105 -56l83 90l42 -38l-83 -90q46 -49 71.5 -115t25.5 -143q0 -79 -27.5 -147t-76 -118t-116.5 -78.5t-149 -28.5q-69 0 -128 20.5t-106 58.5l-84 -91zM581 580
q-33 26 -74.5 41t-90.5 15q-61 0 -110 -22.5t-84 -60.5t-54 -89.5t-19 -109.5q0 -52 15 -98t43 -83zM246 131q34 -28 76.5 -43.5t93.5 -15.5q61 0 110 22.5t84 60.5t54 89.5t19 109.5q0 54 -16 101t-46 85z" />
    <glyph glyph-name="Ugrave" unicode="&#xd9;" horiz-adv-x="704" 
d="M174 708v-434q0 -33 9 -68.5t30 -65.5t55 -49t84 -19t84 19t55 49t30 65.5t9 68.5v434h96v-449q0 -62 -21 -112.5t-58 -87.5t-87 -57t-108 -20t-108 20t-87 57t-58 87.5t-21 112.5v449h96zM418 748h-83l-149 144h128z" />
    <glyph glyph-name="Uacute" unicode="&#xda;" horiz-adv-x="704" 
d="M174 708v-434q0 -33 9 -68.5t30 -65.5t55 -49t84 -19t84 19t55 49t30 65.5t9 68.5v434h96v-449q0 -62 -21 -112.5t-58 -87.5t-87 -57t-108 -20t-108 20t-87 57t-58 87.5t-21 112.5v449h96zM390 892h128l-149 -144h-83z" />
    <glyph glyph-name="Ucircumflex" unicode="&#xdb;" horiz-adv-x="704" 
d="M174 708v-434q0 -33 9 -68.5t30 -65.5t55 -49t84 -19t84 19t55 49t30 65.5t9 68.5v434h96v-449q0 -62 -21 -112.5t-58 -87.5t-87 -57t-108 -20t-108 20t-87 57t-58 87.5t-21 112.5v449h96zM426 748l-74 96l-74 -96h-91l112 144h106l112 -144h-91z" />
    <glyph glyph-name="Udieresis" unicode="&#xdc;" horiz-adv-x="704" 
d="M174 708v-434q0 -33 9 -68.5t30 -65.5t55 -49t84 -19t84 19t55 49t30 65.5t9 68.5v434h96v-449q0 -62 -21 -112.5t-58 -87.5t-87 -57t-108 -20t-108 20t-87 57t-58 87.5t-21 112.5v449h96zM454 898q23 0 42.5 -16t19.5 -41q0 -27 -17.5 -45t-44.5 -18t-44.5 18t-17.5 45
q0 25 19.5 41t42.5 16zM250 898q23 0 42.5 -16t19.5 -41q0 -27 -17.5 -45t-44.5 -18t-44.5 18t-17.5 45q0 25 19.5 41t42.5 16z" />
    <glyph glyph-name="Yacute" unicode="&#xdd;" horiz-adv-x="612" 
d="M258 302l-268 406h123l193 -311l199 311h117l-268 -406v-302h-96v302zM344 892h128l-149 -144h-83z" />
    <glyph glyph-name="Thorn" unicode="&#xde;" horiz-adv-x="593" 
d="M187 251h126q28 0 55.5 4.5t49 16.5t34.5 34.5t13 58.5t-13 58.5t-34.5 34.5t-49 16.5t-55.5 4.5h-126v-228zM91 708h96v-145h153q68 0 112 -18.5t69.5 -47t35.5 -64t10 -68.5t-10 -68.5t-35.5 -64t-69.5 -47t-112 -18.5h-153v-167h-96v708z" />
    <glyph glyph-name="germandbls" unicode="&#xdf;" horiz-adv-x="611" 
d="M68 509q0 53 9 100t33.5 82.5t68.5 56t114 20.5q42 0 78.5 -11.5t64.5 -34.5t44 -57t16 -78q0 -62 -30 -101t-81 -54v-2q30 -5 60 -19t54.5 -39.5t40 -63t15.5 -88.5q0 -54 -18 -97t-50.5 -73t-77 -46t-96.5 -16q-37 0 -71 9v81q25 -6 53 -6q74 0 119 40.5t45 115.5
q0 40 -13.5 69t-37 48t-55 28.5t-68.5 9.5h-14v84h16q51 0 82 29t31 80q0 30 -10 51t-26 33.5t-36 18t-40 5.5q-38 0 -63 -12.5t-40 -34.5t-21 -52t-6 -65v-520h-90v509z" />
    <glyph glyph-name="agrave" unicode="&#xe0;" horiz-adv-x="519" 
d="M324 228q-32 0 -65.5 -3.5t-61 -13.5t-45 -28t-17.5 -46q0 -41 27.5 -59t74.5 -18q37 0 63 12.5t42 32.5t23 44.5t7 48.5v30h-48zM70 416q38 35 88 52.5t100 17.5q52 0 89.5 -13t61.5 -35t35.5 -50.5t11.5 -59.5v-242q0 -25 1 -46t3 -40h-80q-3 36 -3 72h-2
q-30 -46 -71 -65t-95 -19q-33 0 -63 9t-52.5 27t-35.5 44.5t-13 61.5q0 46 20.5 77t56 50.5t83 28t101.5 8.5h66v20q0 18 -7 36t-21 32.5t-35 23t-50 8.5q-26 0 -45.5 -5t-35.5 -12.5t-29 -17.5l-25 -19zM326 564h-83l-149 144h128z" />
    <glyph glyph-name="aacute" unicode="&#xe1;" horiz-adv-x="519" 
d="M324 228q-32 0 -65.5 -3.5t-61 -13.5t-45 -28t-17.5 -46q0 -41 27.5 -59t74.5 -18q37 0 63 12.5t42 32.5t23 44.5t7 48.5v30h-48zM70 416q38 35 88 52.5t100 17.5q52 0 89.5 -13t61.5 -35t35.5 -50.5t11.5 -59.5v-242q0 -25 1 -46t3 -40h-80q-3 36 -3 72h-2
q-30 -46 -71 -65t-95 -19q-33 0 -63 9t-52.5 27t-35.5 44.5t-13 61.5q0 46 20.5 77t56 50.5t83 28t101.5 8.5h66v20q0 18 -7 36t-21 32.5t-35 23t-50 8.5q-26 0 -45.5 -5t-35.5 -12.5t-29 -17.5l-25 -19zM298 708h128l-149 -144h-83z" />
    <glyph glyph-name="acircumflex" unicode="&#xe2;" horiz-adv-x="519" 
d="M324 228q-32 0 -65.5 -3.5t-61 -13.5t-45 -28t-17.5 -46q0 -41 27.5 -59t74.5 -18q37 0 63 12.5t42 32.5t23 44.5t7 48.5v30h-48zM70 416q38 35 88 52.5t100 17.5q52 0 89.5 -13t61.5 -35t35.5 -50.5t11.5 -59.5v-242q0 -25 1 -46t3 -40h-80q-3 36 -3 72h-2
q-30 -46 -71 -65t-95 -19q-33 0 -63 9t-52.5 27t-35.5 44.5t-13 61.5q0 46 20.5 77t56 50.5t83 28t101.5 8.5h66v20q0 18 -7 36t-21 32.5t-35 23t-50 8.5q-26 0 -45.5 -5t-35.5 -12.5t-29 -17.5l-25 -19zM334 564l-74 96l-74 -96h-91l112 144h106l112 -144h-91z" />
    <glyph glyph-name="atilde" unicode="&#xe3;" horiz-adv-x="519" 
d="M324 228q-32 0 -65.5 -3.5t-61 -13.5t-45 -28t-17.5 -46q0 -41 27.5 -59t74.5 -18q37 0 63 12.5t42 32.5t23 44.5t7 48.5v30h-48zM70 416q38 35 88 52.5t100 17.5q52 0 89.5 -13t61.5 -35t35.5 -50.5t11.5 -59.5v-242q0 -25 1 -46t3 -40h-80q-3 36 -3 72h-2
q-30 -46 -71 -65t-95 -19q-33 0 -63 9t-52.5 27t-35.5 44.5t-13 61.5q0 46 20.5 77t56 50.5t83 28t101.5 8.5h66v20q0 18 -7 36t-21 32.5t-35 23t-50 8.5q-26 0 -45.5 -5t-35.5 -12.5t-29 -17.5l-25 -19zM92 576q3 19 11 38t20.5 33.5t30 23.5t39.5 9q23 0 43.5 -7.5
l40.5 -15.5q15 -6 26.5 -11.5t27.5 -5.5q20 0 32 13t17 31h48q-3 -19 -10 -37.5t-18 -33.5t-27.5 -24t-38.5 -9q-21 0 -41.5 6.5t-39.5 14.5l-32 12.5t-34 6.5q-19 0 -30.5 -13.5t-16.5 -30.5h-48z" />
    <glyph glyph-name="adieresis" unicode="&#xe4;" horiz-adv-x="519" 
d="M324 228q-32 0 -65.5 -3.5t-61 -13.5t-45 -28t-17.5 -46q0 -41 27.5 -59t74.5 -18q37 0 63 12.5t42 32.5t23 44.5t7 48.5v30h-48zM70 416q38 35 88 52.5t100 17.5q52 0 89.5 -13t61.5 -35t35.5 -50.5t11.5 -59.5v-242q0 -25 1 -46t3 -40h-80q-3 36 -3 72h-2
q-30 -46 -71 -65t-95 -19q-33 0 -63 9t-52.5 27t-35.5 44.5t-13 61.5q0 46 20.5 77t56 50.5t83 28t101.5 8.5h66v20q0 18 -7 36t-21 32.5t-35 23t-50 8.5q-26 0 -45.5 -5t-35.5 -12.5t-29 -17.5l-25 -19zM362 714q23 0 42.5 -16t19.5 -41q0 -27 -17.5 -45t-44.5 -18
t-44.5 18t-17.5 45q0 25 19.5 41t42.5 16zM158 714q23 0 42.5 -16t19.5 -41q0 -27 -17.5 -45t-44.5 -18t-44.5 18t-17.5 45q0 25 19.5 41t42.5 16z" />
    <glyph glyph-name="aring" unicode="&#xe5;" horiz-adv-x="519" 
d="M324 228q-32 0 -65.5 -3.5t-61 -13.5t-45 -28t-17.5 -46q0 -41 27.5 -59t74.5 -18q37 0 63 12.5t42 32.5t23 44.5t7 48.5v30h-48zM70 416q38 35 88 52.5t100 17.5q52 0 89.5 -13t61.5 -35t35.5 -50.5t11.5 -59.5v-242q0 -25 1 -46t3 -40h-80q-3 36 -3 72h-2
q-30 -46 -71 -65t-95 -19q-33 0 -63 9t-52.5 27t-35.5 44.5t-13 61.5q0 46 20.5 77t56 50.5t83 28t101.5 8.5h66v20q0 18 -7 36t-21 32.5t-35 23t-50 8.5q-26 0 -45.5 -5t-35.5 -12.5t-29 -17.5l-25 -19zM320 651q0 25 -18 41t-42 16t-42 -16t-18 -41q0 -24 18.5 -40
t41.5 -16t41.5 16t18.5 40zM158 651q0 21 8.5 39t22.5 31.5t32.5 21t38.5 7.5q21 0 39.5 -7.5t32.5 -21t22 -31t8 -38.5t-8 -39t-22 -31.5t-32.5 -21t-39.5 -7.5q-20 0 -38.5 7.5t-32.5 21t-22.5 31t-8.5 38.5z" />
    <glyph glyph-name="ae" unicode="&#xe6;" horiz-adv-x="852" 
d="M717 276q-1 27 -8 51t-22 42t-38.5 28.5t-57.5 10.5q-32 0 -56 -10.5t-41 -28.5t-25.5 -42t-8.5 -51h257zM234 204q-52 0 -75.5 -17t-23.5 -52t29 -58t70 -23q28 0 53.5 9.5t45 27t31.5 42.5t12 57v14h-142zM813 204h-353q0 -29 9.5 -55t28 -45.5t45 -31.5t60.5 -12
q43 0 74 21.5t49 53.5l73 -55q-42 -48 -87.5 -73t-110.5 -25q-57 0 -105 21.5t-80 75.5q-33 -45 -80.5 -71t-113.5 -26q-48 0 -82.5 13.5t-57 35t-33 49t-10.5 55.5q0 42 17.5 69.5t45.5 43t63.5 22t70.5 6.5h140v15q0 51 -30 87t-89 36q-42 0 -72 -14t-62 -40l-56 57
q38 34 88 51.5t101 17.5q49 0 95.5 -17t74.5 -59q12 13 27 26.5t35 24.5t45.5 18t58.5 7q68 0 111 -26t67.5 -63.5t33.5 -79t9 -71.5v-42z" />
    <glyph glyph-name="ccedilla" unicode="&#xe7;" horiz-adv-x="482" 
d="M407 348q-25 26 -52.5 39.5t-65.5 13.5q-37 0 -64.5 -13.5t-46 -37t-28 -54t-9.5 -63.5t11 -62.5t31 -51.5t48 -34.5t63 -12.5q38 0 65 13.5t50 39.5l64 -64q-35 -39 -81.5 -56t-98.5 -17q-55 0 -100.5 18t-78.5 50.5t-51 78t-18 100.5t18 101t50.5 79t78 51.5
t101.5 18.5q52 0 99.5 -18.5t82.5 -56.5zM175 -165q37 -15 78 -15q9 0 19.5 2t20 6.5t15.5 12.5t6 21q0 19 -9.5 28t-23.5 11.5t-30.5 0t-30.5 -6.5l-21 18l61 87h49l-44 -61h29q17 0 33.5 -4t29.5 -13t21 -22.5t8 -32.5q0 -27 -11.5 -45t-29.5 -29t-40.5 -16t-43.5 -5
q-27 0 -53.5 5.5t-51.5 17.5z" />
    <glyph glyph-name="egrave" unicode="&#xe8;" 
d="M420 276q-1 30 -9.5 55t-25.5 43.5t-42.5 29t-59.5 10.5q-33 0 -60.5 -12.5t-46.5 -32.5t-29.5 -44.5t-10.5 -48.5h284zM136 204q0 -31 13.5 -56.5t35.5 -43.5t51 -28t60 -10q42 0 73 19.5t57 51.5l68 -52q-75 -97 -210 -97q-56 0 -101.5 19t-77 52.5t-48.5 79t-17 98.5
t18.5 98.5t51 79t77.5 52.5t98 19q63 0 106.5 -22t71.5 -57.5t40.5 -80t12.5 -90.5v-32h-380zM344 564h-83l-149 144h128z" />
    <glyph glyph-name="eacute" unicode="&#xe9;" 
d="M420 276q-1 30 -9.5 55t-25.5 43.5t-42.5 29t-59.5 10.5q-33 0 -60.5 -12.5t-46.5 -32.5t-29.5 -44.5t-10.5 -48.5h284zM136 204q0 -31 13.5 -56.5t35.5 -43.5t51 -28t60 -10q42 0 73 19.5t57 51.5l68 -52q-75 -97 -210 -97q-56 0 -101.5 19t-77 52.5t-48.5 79t-17 98.5
t18.5 98.5t51 79t77.5 52.5t98 19q63 0 106.5 -22t71.5 -57.5t40.5 -80t12.5 -90.5v-32h-380zM316 708h128l-149 -144h-83z" />
    <glyph glyph-name="ecircumflex" unicode="&#xea;" 
d="M420 276q-1 30 -9.5 55t-25.5 43.5t-42.5 29t-59.5 10.5q-33 0 -60.5 -12.5t-46.5 -32.5t-29.5 -44.5t-10.5 -48.5h284zM136 204q0 -31 13.5 -56.5t35.5 -43.5t51 -28t60 -10q42 0 73 19.5t57 51.5l68 -52q-75 -97 -210 -97q-56 0 -101.5 19t-77 52.5t-48.5 79t-17 98.5
t18.5 98.5t51 79t77.5 52.5t98 19q63 0 106.5 -22t71.5 -57.5t40.5 -80t12.5 -90.5v-32h-380zM352 564l-74 96l-74 -96h-91l112 144h106l112 -144h-91z" />
    <glyph glyph-name="edieresis" unicode="&#xeb;" 
d="M420 276q-1 30 -9.5 55t-25.5 43.5t-42.5 29t-59.5 10.5q-33 0 -60.5 -12.5t-46.5 -32.5t-29.5 -44.5t-10.5 -48.5h284zM136 204q0 -31 13.5 -56.5t35.5 -43.5t51 -28t60 -10q42 0 73 19.5t57 51.5l68 -52q-75 -97 -210 -97q-56 0 -101.5 19t-77 52.5t-48.5 79t-17 98.5
t18.5 98.5t51 79t77.5 52.5t98 19q63 0 106.5 -22t71.5 -57.5t40.5 -80t12.5 -90.5v-32h-380zM380 714q23 0 42.5 -16t19.5 -41q0 -27 -17.5 -45t-44.5 -18t-44.5 18t-17.5 45q0 25 19.5 41t42.5 16zM176 714q23 0 42.5 -16t19.5 -41q0 -27 -17.5 -45t-44.5 -18t-44.5 18
t-17.5 45q0 25 19.5 41t42.5 16z" />
    <glyph glyph-name="igrave" unicode="&#xec;" horiz-adv-x="240" 
d="M75 474h90v-474h-90v474zM186 564h-83l-149 144h128z" />
    <glyph glyph-name="iacute" unicode="&#xed;" horiz-adv-x="240" 
d="M75 474h90v-474h-90v474zM158 708h128l-149 -144h-83z" />
    <glyph glyph-name="icircumflex" unicode="&#xee;" horiz-adv-x="240" 
d="M75 474h90v-474h-90v474zM194 564l-74 96l-74 -96h-91l112 144h106l112 -144h-91z" />
    <glyph glyph-name="idieresis" unicode="&#xef;" horiz-adv-x="240" 
d="M75 474h90v-474h-90v474zM222 714q23 0 42.5 -16t19.5 -41q0 -27 -17.5 -45t-44.5 -18t-44.5 18t-17.5 45q0 25 19.5 41t42.5 16zM18 714q23 0 42.5 -16t19.5 -41q0 -27 -17.5 -45t-44.5 -18t-44.5 18t-17.5 45q0 25 19.5 41t42.5 16z" />
    <glyph glyph-name="eth" unicode="&#xf0;" horiz-adv-x="594" 
d="M141 237q0 -36 11 -66.5t31 -52t49 -34t65 -12.5t65 12.5t49 34t31 52t11 66.5t-11 66.5t-31 52t-49 34t-65 12.5t-65 -12.5t-49 -34t-31 -52t-11 -66.5zM475 712l-112 -55q39 -41 72.5 -85t59 -92t40 -100.5t14.5 -110.5q0 -63 -17 -115t-49.5 -89t-79 -57t-106.5 -20
q-53 0 -99 19.5t-80 53t-53.5 79t-19.5 97.5t19.5 97t53.5 79t80 53.5t99 19.5q33 0 67 -11t58 -39l2 2q-28 50 -65 94.5t-79 85.5l-107 -52l-47 46l106 53l-85 71l79 46l89 -78l108 52z" />
    <glyph glyph-name="ntilde" unicode="&#xf1;" 
d="M68 474h90v-73h2q17 38 59 61.5t97 23.5q34 0 65.5 -10.5t55 -32.5t37.5 -56.5t14 -81.5v-305h-90v280q0 33 -9 56.5t-24 38t-34.5 21t-40.5 6.5q-28 0 -52 -9t-42 -28.5t-28 -49.5t-10 -71v-244h-90v474zM110 576q3 19 11 38t20.5 33.5t30 23.5t39.5 9q23 0 43.5 -7.5
l40.5 -15.5q15 -6 26.5 -11.5t27.5 -5.5q20 0 32 13t17 31h48q-3 -19 -10 -37.5t-18 -33.5t-27.5 -24t-38.5 -9q-21 0 -41.5 6.5t-39.5 14.5l-32 12.5t-34 6.5q-19 0 -30.5 -13.5t-16.5 -30.5h-48z" />
    <glyph glyph-name="ograve" unicode="&#xf2;" horiz-adv-x="594" 
d="M45 237q0 52 19.5 97t53.5 79t80 53.5t99 19.5t99 -19.5t80 -53.5t53.5 -79t19.5 -97t-19.5 -97.5t-53.5 -79t-80 -53t-99 -19.5t-99 19.5t-80 53t-53.5 79t-19.5 97.5zM141 237q0 -36 11 -66.5t31 -52t49 -34t65 -12.5t65 12.5t49 34t31 52t11 66.5t-11 66.5t-31 52
t-49 34t-65 12.5t-65 -12.5t-49 -34t-31 -52t-11 -66.5zM363 564h-83l-149 144h128z" />
    <glyph glyph-name="oacute" unicode="&#xf3;" horiz-adv-x="594" 
d="M45 237q0 52 19.5 97t53.5 79t80 53.5t99 19.5t99 -19.5t80 -53.5t53.5 -79t19.5 -97t-19.5 -97.5t-53.5 -79t-80 -53t-99 -19.5t-99 19.5t-80 53t-53.5 79t-19.5 97.5zM141 237q0 -36 11 -66.5t31 -52t49 -34t65 -12.5t65 12.5t49 34t31 52t11 66.5t-11 66.5t-31 52
t-49 34t-65 12.5t-65 -12.5t-49 -34t-31 -52t-11 -66.5zM335 708h128l-149 -144h-83z" />
    <glyph glyph-name="ocircumflex" unicode="&#xf4;" horiz-adv-x="594" 
d="M45 237q0 52 19.5 97t53.5 79t80 53.5t99 19.5t99 -19.5t80 -53.5t53.5 -79t19.5 -97t-19.5 -97.5t-53.5 -79t-80 -53t-99 -19.5t-99 19.5t-80 53t-53.5 79t-19.5 97.5zM141 237q0 -36 11 -66.5t31 -52t49 -34t65 -12.5t65 12.5t49 34t31 52t11 66.5t-11 66.5t-31 52
t-49 34t-65 12.5t-65 -12.5t-49 -34t-31 -52t-11 -66.5zM371 564l-74 96l-74 -96h-91l112 144h106l112 -144h-91z" />
    <glyph glyph-name="otilde" unicode="&#xf5;" horiz-adv-x="594" 
d="M45 237q0 52 19.5 97t53.5 79t80 53.5t99 19.5t99 -19.5t80 -53.5t53.5 -79t19.5 -97t-19.5 -97.5t-53.5 -79t-80 -53t-99 -19.5t-99 19.5t-80 53t-53.5 79t-19.5 97.5zM141 237q0 -36 11 -66.5t31 -52t49 -34t65 -12.5t65 12.5t49 34t31 52t11 66.5t-11 66.5t-31 52
t-49 34t-65 12.5t-65 -12.5t-49 -34t-31 -52t-11 -66.5zM129 576q3 19 11 38t20.5 33.5t30 23.5t39.5 9q23 0 43.5 -7.5l40.5 -15.5q15 -6 26.5 -11.5t27.5 -5.5q20 0 32 13t17 31h48q-3 -19 -10 -37.5t-18 -33.5t-27.5 -24t-38.5 -9q-21 0 -41.5 6.5t-39.5 14.5l-32 12.5
t-34 6.5q-19 0 -30.5 -13.5t-16.5 -30.5h-48z" />
    <glyph glyph-name="odieresis" unicode="&#xf6;" horiz-adv-x="594" 
d="M45 237q0 52 19.5 97t53.5 79t80 53.5t99 19.5t99 -19.5t80 -53.5t53.5 -79t19.5 -97t-19.5 -97.5t-53.5 -79t-80 -53t-99 -19.5t-99 19.5t-80 53t-53.5 79t-19.5 97.5zM141 237q0 -36 11 -66.5t31 -52t49 -34t65 -12.5t65 12.5t49 34t31 52t11 66.5t-11 66.5t-31 52
t-49 34t-65 12.5t-65 -12.5t-49 -34t-31 -52t-11 -66.5zM399 714q23 0 42.5 -16t19.5 -41q0 -27 -17.5 -45t-44.5 -18t-44.5 18t-17.5 45q0 25 19.5 41t42.5 16zM195 714q23 0 42.5 -16t19.5 -41q0 -27 -17.5 -45t-44.5 -18t-44.5 18t-17.5 45q0 25 19.5 41t42.5 16z" />
    <glyph glyph-name="divide" unicode="&#xf7;" horiz-adv-x="666" 
d="M267 134q0 27 19.5 46.5t46.5 19.5t46.5 -19.5t19.5 -46.5t-19.5 -46.5t-46.5 -19.5t-46.5 19.5t-19.5 46.5zM267 470q0 27 19.5 46.5t46.5 19.5t46.5 -19.5t19.5 -46.5t-19.5 -46.5t-46.5 -19.5t-46.5 19.5t-19.5 46.5zM600 341v-78h-534v78h534z" />
    <glyph glyph-name="oslash" unicode="&#xf8;" horiz-adv-x="594" 
d="M208 99q36 -27 89 -27q36 0 65 12.5t49 34t31 52t11 66.5q0 52 -22 89zM41 4l67 68q-29 32 -46 74.5t-17 90.5q0 52 19.5 97t53.5 79t80 53.5t99 19.5q48 0 89 -15.5t73 -42.5l75 75l36 -36l-75 -76q26 -32 40 -71t14 -83q0 -52 -19.5 -97.5t-53.5 -79t-80 -53t-99 -19.5
q-42 0 -80 13t-70 36l-69 -69zM399 367q-20 17 -45 26t-57 9q-36 0 -65 -12.5t-49 -34t-31 -52t-11 -66.5q0 -62 30 -102z" />
    <glyph glyph-name="ugrave" unicode="&#xf9;" 
d="M488 0h-90v73h-2q-17 -38 -59 -61.5t-97 -23.5q-35 0 -66 10.5t-54.5 32.5t-37.5 56.5t-14 81.5v305h90v-280q0 -33 9 -56.5t24 -38t34.5 -21t40.5 -6.5q28 0 52 9t42 28.5t28 49.5t10 71v244h90v-474zM344 564h-83l-149 144h128z" />
    <glyph glyph-name="uacute" unicode="&#xfa;" 
d="M488 0h-90v73h-2q-17 -38 -59 -61.5t-97 -23.5q-35 0 -66 10.5t-54.5 32.5t-37.5 56.5t-14 81.5v305h90v-280q0 -33 9 -56.5t24 -38t34.5 -21t40.5 -6.5q28 0 52 9t42 28.5t28 49.5t10 71v244h90v-474zM316 708h128l-149 -144h-83z" />
    <glyph glyph-name="ucircumflex" unicode="&#xfb;" 
d="M488 0h-90v73h-2q-17 -38 -59 -61.5t-97 -23.5q-35 0 -66 10.5t-54.5 32.5t-37.5 56.5t-14 81.5v305h90v-280q0 -33 9 -56.5t24 -38t34.5 -21t40.5 -6.5q28 0 52 9t42 28.5t28 49.5t10 71v244h90v-474zM352 564l-74 96l-74 -96h-91l112 144h106l112 -144h-91z" />
    <glyph glyph-name="udieresis" unicode="&#xfc;" 
d="M488 0h-90v73h-2q-17 -38 -59 -61.5t-97 -23.5q-35 0 -66 10.5t-54.5 32.5t-37.5 56.5t-14 81.5v305h90v-280q0 -33 9 -56.5t24 -38t34.5 -21t40.5 -6.5q28 0 52 9t42 28.5t28 49.5t10 71v244h90v-474zM380 714q23 0 42.5 -16t19.5 -41q0 -27 -17.5 -45t-44.5 -18
t-44.5 18t-17.5 45q0 25 19.5 41t42.5 16zM176 714q23 0 42.5 -16t19.5 -41q0 -27 -17.5 -45t-44.5 -18t-44.5 18t-17.5 45q0 25 19.5 41t42.5 16z" />
    <glyph glyph-name="yacute" unicode="&#xfd;" horiz-adv-x="500" 
d="M11 474h104l141 -370h2l134 370h97l-225 -576q-12 -31 -25 -56.5t-31 -43.5t-43.5 -28t-62.5 -10q-20 0 -40.5 2.5t-39.5 10.5l11 82q27 -11 54 -11q21 0 35.5 5.5t25 16t17.5 24.5t14 32l29 75zM288 708h128l-149 -144h-83z" />
    <glyph glyph-name="thorn" unicode="&#xfe;" horiz-adv-x="611" 
d="M314 72q36 0 65 12.5t49 34t31 52t11 66.5t-11 66.5t-31 52t-49 34t-65 12.5t-65 -12.5t-49 -34t-31 -52t-11 -66.5t11 -66.5t31 -52t49 -34t65 -12.5zM68 756h90v-350h2q24 37 69 58.5t96 21.5q55 0 99.5 -19t76 -52.5t48.5 -79t17 -98.5t-17 -98t-48.5 -79t-76 -53
t-99.5 -19q-48 0 -93.5 21t-71.5 59h-2v-296h-90v984z" />
    <glyph glyph-name="ydieresis" unicode="&#xff;" horiz-adv-x="500" 
d="M11 474h104l141 -370h2l134 370h97l-225 -576q-12 -31 -25 -56.5t-31 -43.5t-43.5 -28t-62.5 -10q-20 0 -40.5 2.5t-39.5 10.5l11 82q27 -11 54 -11q21 0 35.5 5.5t25 16t17.5 24.5t14 32l29 75zM352 714q23 0 42.5 -16t19.5 -41q0 -27 -17.5 -45t-44.5 -18t-44.5 18
t-17.5 45q0 25 19.5 41t42.5 16zM148 714q23 0 42.5 -16t19.5 -41q0 -27 -17.5 -45t-44.5 -18t-44.5 18t-17.5 45q0 25 19.5 41t42.5 16z" />
    <glyph glyph-name="A" unicode="A" horiz-adv-x="704" 
d="M485 259l-132 325h-2l-134 -325h268zM313 708h87l303 -708h-112l-71 175h-337l-70 -175h-112z" />
    <glyph glyph-name="Lslash" unicode="&#x141;" horiz-adv-x="519" 
d="M91 209l-72 -63v89l72 62v411h96v-328l216 188v-89l-216 -187v-202h325v-90h-421v209z" />
    <glyph glyph-name="breve" unicode="&#x2d8;" horiz-adv-x="240" 
d="M18 702q7 -38 36.5 -55t66.5 -17t66.5 17t36.5 55h53q-5 -69 -48 -103.5t-109 -34.5t-109 34.5t-48 103.5h55z" />
    <glyph glyph-name="caron" unicode="&#x2c7;" horiz-adv-x="240" 
d="M-45 708h87l78 -96l74 96h91l-112 -144h-106z" />
    <glyph glyph-name="dotaccent" unicode="&#x2d9;" horiz-adv-x="240" 
d="M120 594q-27 0 -44.5 18t-17.5 45q0 25 19.5 41t42.5 16t42.5 -16t19.5 -41q0 -27 -17.5 -45t-44.5 -18z" />
    <glyph glyph-name="dotlessi" unicode="&#x131;" horiz-adv-x="240" 
d="M75 474h90v-474h-90v474z" />
    <glyph glyph-name="fi" unicode="&#xfb01;" 
d="M103 396h-102v78h102v106q0 95 36.5 141.5t125.5 46.5q15 0 31.5 -1t35.5 -6l-10 -80q-13 5 -25 7t-26 2q-25 0 -40 -7.5t-23.5 -21.5t-11 -33.5t-2.5 -44.5v-109h107v-78h-108v-396h-90v396zM370 643q0 27 19.5 46.5t46.5 19.5t46.5 -19.5t19.5 -46.5t-19.5 -46.5
t-46.5 -19.5t-46.5 19.5t-19.5 46.5zM390 474h90v-474h-90v474z" />
    <glyph glyph-name="fl" unicode="&#xfb02;" 
d="M103 396h-102v78h102v106q0 95 36.5 141.5t125.5 46.5q15 0 31.5 -1t35.5 -6l-10 -80q-13 5 -25 7t-26 2q-25 0 -40 -7.5t-23.5 -21.5t-11 -33.5t-2.5 -44.5v-109h107v-78h-108v-396h-90v396zM391 756h90v-756h-90v756z" />
    <glyph glyph-name="fraction" unicode="&#x2215;" horiz-adv-x="167" 
d="M-106 -32l-60 32l439 740l60 -32z" />
    <glyph glyph-name="hungarumlaut" unicode="&#x2dd;" horiz-adv-x="240" 
d="M223 708h127l-149 -144h-82zM54 708h127l-149 -144h-82z" />
    <glyph glyph-name="lslash" unicode="&#x142;" horiz-adv-x="240" 
d="M75 298l-78 -78v90l78 78v368h90v-278l78 77v-90l-78 -77v-388h-90v298z" />
    <glyph glyph-name="minus" unicode="&#x2212;" horiz-adv-x="666" 
d="M600 342v-78h-534v78h534z" />
    <glyph glyph-name="ogonek" unicode="&#x2db;" horiz-adv-x="240" 
d="M215 -186q-20 -18 -44 -26.5t-47 -8.5q-39 0 -68 21.5t-31 63.5q0 21 8.5 41.5t22 39t30 34.5t32.5 28h54q-11 -11 -24 -25.5t-24.5 -31.5t-19 -34.5t-7.5 -33.5q2 -24 16.5 -33.5t32.5 -9.5q13 0 25 5.5t22 13.5z" />
    <glyph glyph-name="ring" unicode="&#x2da;" horiz-adv-x="240" 
d="M180 651q0 25 -18 41t-42 16t-42 -16t-18 -41q0 -24 18.5 -40t41.5 -16t41.5 16t18.5 40zM18 651q0 21 8.5 39t22.5 31.5t32.5 21t38.5 7.5q21 0 39.5 -7.5t32.5 -21t22 -31t8 -38.5t-8 -39t-22 -31.5t-32.5 -21t-39.5 -7.5q-20 0 -38.5 7.5t-32.5 21t-22.5 31t-8.5 38.5
z" />
    <glyph glyph-name="nonbreakingspace" horiz-adv-x="278" 
 />
    <hkern u1="F" u2="A" k="55" />
    <hkern u1="F" u2="&#x2e;" k="157" />
    <hkern u1="F" u2="&#x2c;" k="157" />
    <hkern u1="L" u2="&#x2019;" k="111" />
    <hkern u1="L" u2="y" k="37" />
    <hkern u1="L" u2="Y" k="111" />
    <hkern u1="L" u2="W" k="55" />
    <hkern u1="L" u2="V" k="92" />
    <hkern u1="L" u2="T" k="92" />
    <hkern u1="P" u2="A" k="74" />
    <hkern u1="P" u2="&#x2e;" k="179" />
    <hkern u1="P" u2="&#x2c;" k="179" />
    <hkern u1="R" u2="Y" k="18" />
    <hkern u1="R" u2="T" k="18" />
    <hkern u1="T" u2="A" k="92" />
    <hkern u1="T" u2="y" k="111" />
    <hkern u1="T" u2="w" k="111" />
    <hkern u1="T" u2="u" k="101" />
    <hkern u1="T" u2="s" k="111" />
    <hkern u1="T" u2="r" k="92" />
    <hkern u1="T" u2="o" k="111" />
    <hkern u1="T" u2="e" k="111" />
    <hkern u1="T" u2="c" k="111" />
    <hkern u1="T" u2="a" k="111" />
    <hkern u1="T" u2="&#x3b;" k="111" />
    <hkern u1="T" u2="&#x3a;" k="111" />
    <hkern u1="T" u2="&#x2e;" k="111" />
    <hkern u1="T" u2="&#x2d;" k="129" />
    <hkern u1="T" u2="&#x2c;" k="111" />
    <hkern u1="V" u2="A" k="46" />
    <hkern u1="V" u2="y" k="18" />
    <hkern u1="V" u2="u" k="37" />
    <hkern u1="V" u2="r" k="37" />
    <hkern u1="V" u2="o" k="55" />
    <hkern u1="V" u2="i" k="18" />
    <hkern u1="V" u2="e" k="55" />
    <hkern u1="V" u2="a" k="55" />
    <hkern u1="V" u2="&#x3b;" k="46" />
    <hkern u1="V" u2="&#x3a;" k="46" />
    <hkern u1="V" u2="&#x2e;" k="129" />
    <hkern u1="V" u2="&#x2d;" k="55" />
    <hkern u1="V" u2="&#x2c;" k="129" />
    <hkern u1="W" u2="A" k="24" />
    <hkern u1="W" u2="u" k="18" />
    <hkern u1="W" u2="r" k="18" />
    <hkern u1="W" u2="o" k="47" />
    <hkern u1="W" u2="e" k="47" />
    <hkern u1="W" u2="a" k="47" />
    <hkern u1="W" u2="&#x3b;" k="18" />
    <hkern u1="W" u2="&#x3a;" k="18" />
    <hkern u1="W" u2="&#x2e;" k="90" />
    <hkern u1="W" u2="&#x2c;" k="90" />
    <hkern u1="Y" u2="A" k="74" />
    <hkern u1="Y" u2="v" k="55" />
    <hkern u1="Y" u2="u" k="74" />
    <hkern u1="Y" u2="q" k="92" />
    <hkern u1="Y" u2="p" k="74" />
    <hkern u1="Y" u2="o" k="111" />
    <hkern u1="Y" u2="i" k="37" />
    <hkern u1="Y" u2="e" k="111" />
    <hkern u1="Y" u2="a" k="92" />
    <hkern u1="Y" u2="&#x3b;" k="92" />
    <hkern u1="Y" u2="&#x3a;" k="92" />
    <hkern u1="Y" u2="&#x2e;" k="139" />
    <hkern u1="Y" u2="&#x2d;" k="111" />
    <hkern u1="Y" u2="&#x2c;" k="139" />
    <hkern u1="f" u2="&#x2019;" k="-18" />
    <hkern u1="f" u2="f" k="18" />
    <hkern u1="r" u2="q" k="18" />
    <hkern u1="r" u2="o" k="18" />
    <hkern u1="r" u2="g" k="18" />
    <hkern u1="r" u2="e" k="18" />
    <hkern u1="r" u2="d" k="18" />
    <hkern u1="r" u2="c" k="18" />
    <hkern u1="r" u2="&#x2e;" k="92" />
    <hkern u1="r" u2="&#x2d;" k="55" />
    <hkern u1="r" u2="&#x2c;" k="92" />
    <hkern u1="v" u2="&#x2e;" k="74" />
    <hkern u1="v" u2="&#x2c;" k="74" />
    <hkern u1="w" u2="&#x2e;" k="55" />
    <hkern u1="w" u2="&#x2c;" k="55" />
    <hkern u1="y" u2="&#x2e;" k="74" />
    <hkern u1="y" u2="&#x2c;" k="74" />
    <hkern u1="&#x2018;" u2="&#x2018;" k="101" />
    <hkern u1="&#x2019;" u2="&#x2019;" k="101" />
    <hkern u1="&#x2019;" u2="t" k="18" />
    <hkern u1="&#x2019;" u2="s" k="74" />
    <hkern u1="A" u2="&#x2019;" k="74" />
    <hkern u1="A" u2="y" k="18" />
    <hkern u1="A" u2="w" k="18" />
    <hkern u1="A" u2="v" k="18" />
    <hkern u1="A" u2="Y" k="74" />
    <hkern u1="A" u2="W" k="24" />
    <hkern u1="A" u2="V" k="46" />
    <hkern u1="A" u2="T" k="92" />
  </font>
</defs></svg>
